{
  "sections": [
    {
      "id": 39403196679315,
      "url": "https://Criscras13.github.io/API_testing/api/v2/help_center/en-us/sections/39403196679315.json",
      "html_url": "https://Criscras13.github.io/API_testing/api/v2/help_center/en-us/sections/39403196679315.html",
      "category_id": 39401660387859,
      "position": 2,
      "sorting": "manual",
      "created_at": "2025-03-14T18:33:55Z",
      "updated_at": "2025-08-08T10:17:32Z",
      "name": "User Guides",
      "description": "",
      "locale": "en-us",
      "source_locale": "en-us",
      "outdated": false,
      "parent_section_id": null,
      "theme_template": "section_page"
    },
    {
      "id": 39401806118547,
      "url": "https://Criscras13.github.io/API_testing/api/v2/help_center/en-us/sections/39401806118547.json",
      "html_url": "https://Criscras13.github.io/API_testing/api/v2/help_center/en-us/sections/39401806118547.html",
      "category_id": 39401641458195,
      "position": 2,
      "sorting": "manual",
      "created_at": "2025-03-14T17:59:18Z",
      "updated_at": "2025-11-18T19:10:05Z",
      "name": "Dashboard",
      "description": "",
      "locale": "en-us",
      "source_locale": "en-us",
      "outdated": false,
      "parent_section_id": null,
      "theme_template": "section_page"
    },
    {
      "id": 35656844330899,
      "url": "https://Criscras13.github.io/API_testing/api/v2/help_center/en-us/sections/35656844330899.json",
      "html_url": "https://Criscras13.github.io/API_testing/api/v2/help_center/en-us/sections/35656844330899.html",
      "category_id": 35417481372307,
      "position": 2,
      "sorting": "manual",
      "created_at": "2024-11-21T19:02:20Z",
      "updated_at": "2025-11-21T14:30:12Z",
      "name": "Dashboard",
      "description": "",
      "locale": "en-us",
      "source_locale": "en-us",
      "outdated": false,
      "parent_section_id": null,
      "theme_template": "section_page"
    },
    {
      "id": 27890146443539,
      "url": "https://Criscras13.github.io/API_testing/api/v2/help_center/en-us/sections/27890146443539.json",
      "html_url": "https://Criscras13.github.io/API_testing/api/v2/help_center/en-us/sections/27890146443539.html",
      "category_id": 8816505020819,
      "position": 2,
      "sorting": "manual",
      "created_at": "2024-03-28T20:03:02Z",
      "updated_at": "2025-06-19T18:33:15Z",
      "name": "Site Maintenance",
      "description": "",
      "locale": "en-us",
      "source_locale": "en-us",
      "outdated": false,
      "parent_section_id": 360000154747,
      "theme_template": "section_page"
    },
    {
      "id": 27812364314515,
      "url": "https://Criscras13.github.io/API_testing/api/v2/help_center/en-us/sections/27812364314515.json",
      "html_url": "https://Criscras13.github.io/API_testing/api/v2/help_center/en-us/sections/27812364314515.html",
      "category_id": 4406652137875,
      "position": 2,
      "sorting": "manual",
      "created_at": "2024-03-26T17:59:43Z",
      "updated_at": "2025-09-12T20:05:44Z",
      "name": "Settings and Customization",
      "description": "",
      "locale": "en-us",
      "source_locale": "en-us",
      "outdated": false,
      "parent_section_id": 27812338777619,
      "theme_template": "section_page"
    },
    {
      "id": 26429858084115,
      "url": "https://Criscras13.github.io/API_testing/api/v2/help_center/en-us/sections/26429858084115.json",
      "html_url": "https://Criscras13.github.io/API_testing/api/v2/help_center/en-us/sections/26429858084115.html",
      "category_id": 200060614,
      "position": 2,
      "sorting": "manual",
      "created_at": "2024-02-16T22:00:03Z",
      "updated_at": "2025-07-30T16:03:23Z",
      "name": "Brandable Content",
      "description": "",
      "locale": "en-us",
      "source_locale": "en-us",
      "outdated": false,
      "parent_section_id": 4406921551379,
      "theme_template": "section_page"
    },
    {
      "id": 26428532206995,
      "url": "https://Criscras13.github.io/API_testing/api/v2/help_center/en-us/sections/26428532206995.json",
      "html_url": "https://Criscras13.github.io/API_testing/api/v2/help_center/en-us/sections/26428532206995.html",
      "category_id": 200060614,
      "position": 2,
      "sorting": "manual",
      "created_at": "2024-02-16T21:28:01Z",
      "updated_at": "2025-09-29T14:33:48Z",
      "name": "Social Engineering Indicators",
      "description": "",
      "locale": "en-us",
      "source_locale": "en-us",
      "outdated": false,
      "parent_section_id": 360000156548,
      "theme_template": "section_page"
    },
    {
      "id": 26427556772755,
      "url": "https://Criscras13.github.io/API_testing/api/v2/help_center/en-us/sections/26427556772755.json",
      "html_url": "https://Criscras13.github.io/API_testing/api/v2/help_center/en-us/sections/26427556772755.html",
      "category_id": 200060614,
      "position": 2,
      "sorting": "manual",
      "created_at": "2024-02-16T21:05:55Z",
      "updated_at": "2025-11-11T18:29:27Z",
      "name": "Phishing Reports",
      "description": "",
      "locale": "en-us",
      "source_locale": "en-us",
      "outdated": false,
      "parent_section_id": 360000156668,
      "theme_template": "section_page"
    },
    {
      "id": 26414741016851,
      "url": "https://Criscras13.github.io/API_testing/api/v2/help_center/en-us/sections/26414741016851.json",
      "html_url": "https://Criscras13.github.io/API_testing/api/v2/help_center/en-us/sections/26414741016851.html",
      "category_id": 200060614,
      "position": 2,
      "sorting": "manual",
      "created_at": "2024-02-16T16:31:45Z",
      "updated_at": "2025-05-27T14:59:35Z",
      "name": "Localization",
      "description": "",
      "locale": "en-us",
      "source_locale": "en-us",
      "outdated": false,
      "parent_section_id": 4406922364307,
      "theme_template": "section_page"
    },
    {
      "id": 26412507656851,
      "url": "https://Criscras13.github.io/API_testing/api/v2/help_center/en-us/sections/26412507656851.json",
      "html_url": "https://Criscras13.github.io/API_testing/api/v2/help_center/en-us/sections/26412507656851.html",
      "category_id": 200060614,
      "position": 2,
      "sorting": "manual",
      "created_at": "2024-02-16T15:51:58Z",
      "updated_at": "2025-11-19T19:01:05Z",
      "name": "User Profiles",
      "description": "",
      "locale": "en-us",
      "source_locale": "en-us",
      "outdated": false,
      "parent_section_id": 20158407010963,
      "theme_template": "section_page"
    },
    {
      "id": 26245163158547,
      "url": "https://Criscras13.github.io/API_testing/api/v2/help_center/en-us/sections/26245163158547.json",
      "html_url": "https://Criscras13.github.io/API_testing/api/v2/help_center/en-us/sections/26245163158547.html",
      "category_id": 200060614,
      "position": 2,
      "sorting": "manual",
      "created_at": "2024-02-12T20:24:57Z",
      "updated_at": "2025-10-29T17:05:19Z",
      "name": "Direct Message Injection",
      "description": "",
      "locale": "en-us",
      "source_locale": "en-us",
      "outdated": false,
      "parent_section_id": 360000156608,
      "theme_template": "section_page"
    },
    {
      "id": 22041015526547,
      "url": "https://Criscras13.github.io/API_testing/api/v2/help_center/en-us/sections/22041015526547.json",
      "html_url": "https://Criscras13.github.io/API_testing/api/v2/help_center/en-us/sections/22041015526547.html",
      "category_id": 200060614,
      "position": 2,
      "sorting": "manual",
      "created_at": "2023-10-20T19:54:04Z",
      "updated_at": "2025-11-21T17:13:37Z",
      "name": "Completing Training",
      "description": "",
      "locale": "en-us",
      "source_locale": "en-us",
      "outdated": false,
      "parent_section_id": 360000156628,
      "theme_template": "section_page"
    },
    {
      "id": 20420703398419,
      "url": "https://Criscras13.github.io/API_testing/api/v2/help_center/en-us/sections/20420703398419.json",
      "html_url": "https://Criscras13.github.io/API_testing/api/v2/help_center/en-us/sections/20420703398419.html",
      "category_id": 4406652137875,
      "position": 2,
      "sorting": "manual",
      "created_at": "2023-09-06T20:02:30Z",
      "updated_at": "2025-11-24T22:14:10Z",
      "name": "Microsoft PABs",
      "description": "",
      "locale": "en-us",
      "source_locale": "en-us",
      "outdated": false,
      "parent_section_id": 27812338777619,
      "theme_template": "section_page"
    },
    {
      "id": 20416702417939,
      "url": "https://Criscras13.github.io/API_testing/api/v2/help_center/en-us/sections/20416702417939.json",
      "html_url": "https://Criscras13.github.io/API_testing/api/v2/help_center/en-us/sections/20416702417939.html",
      "category_id": 360001227394,
      "position": 2,
      "sorting": "manual",
      "created_at": "2023-09-06T18:27:28Z",
      "updated_at": "2025-11-11T18:29:20Z",
      "name": "Analyzing and Identifying Emails",
      "description": "",
      "locale": "en-us",
      "source_locale": "en-us",
      "outdated": false,
      "parent_section_id": 41219229384723,
      "theme_template": "section_page"
    },
    {
      "id": 20416205509011,
      "url": "https://Criscras13.github.io/API_testing/api/v2/help_center/en-us/sections/20416205509011.json",
      "html_url": "https://Criscras13.github.io/API_testing/api/v2/help_center/en-us/sections/20416205509011.html",
      "category_id": 10948147384211,
      "position": 2,
      "sorting": "manual",
      "created_at": "2023-09-06T18:16:31Z",
      "updated_at": "2025-11-25T21:47:12Z",
      "name": "Configuring Delivery Methods",
      "description": "",
      "locale": "en-us",
      "source_locale": "en-us",
      "outdated": false,
      "parent_section_id": 10969864451091,
      "theme_template": "section_page"
    },
    {
      "id": 20033755383827,
      "url": "https://Criscras13.github.io/API_testing/api/v2/help_center/en-us/sections/20033755383827.json",
      "html_url": "https://Criscras13.github.io/API_testing/api/v2/help_center/en-us/sections/20033755383827.html",
      "category_id": 200060614,
      "position": 2,
      "sorting": "manual",
      "created_at": "2023-08-29T16:54:11Z",
      "updated_at": "2025-11-05T22:15:13Z",
      "name": "Best Practices",
      "description": "",
      "locale": "en-us",
      "source_locale": "en-us",
      "outdated": false,
      "parent_section_id": 360000156528,
      "theme_template": "section_page"
    },
    {
      "id": 15533894653203,
      "url": "https://Criscras13.github.io/API_testing/api/v2/help_center/en-us/sections/15533894653203.json",
      "html_url": "https://Criscras13.github.io/API_testing/api/v2/help_center/en-us/sections/15533894653203.html",
      "category_id": 8816505020819,
      "position": 2,
      "sorting": "manual",
      "created_at": "2023-04-06T12:18:34Z",
      "updated_at": "2025-10-24T20:30:11Z",
      "name": "KnowBe4 Community",
      "description": "",
      "locale": "en-us",
      "source_locale": "en-us",
      "outdated": false,
      "parent_section_id": null,
      "theme_template": "section_page"
    },
    {
      "id": 8750084354963,
      "url": "https://Criscras13.github.io/API_testing/api/v2/help_center/en-us/sections/8750084354963.json",
      "html_url": "https://Criscras13.github.io/API_testing/api/v2/help_center/en-us/sections/8750084354963.html",
      "category_id": 200056750,
      "position": 2,
      "sorting": "manual",
      "created_at": "2022-08-17T17:01:12Z",
      "updated_at": "2025-04-16T21:53:10Z",
      "name": "Dashboards",
      "description": "This section contains articles and videos that can help you use the My Dashboard and Global Dashboard tabs of your KCM GRC platform.",
      "locale": "en-us",
      "source_locale": "en-us",
      "outdated": false,
      "parent_section_id": 360000156808,
      "theme_template": "section_page"
    },
    {
      "id": 8746226512787,
      "url": "https://Criscras13.github.io/API_testing/api/v2/help_center/en-us/sections/8746226512787.json",
      "html_url": "https://Criscras13.github.io/API_testing/api/v2/help_center/en-us/sections/8746226512787.html",
      "category_id": 200056750,
      "position": 2,
      "sorting": "manual",
      "created_at": "2022-08-17T15:12:32Z",
      "updated_at": "2025-05-27T14:59:19Z",
      "name": "Questionnaires",
      "description": "This section contains articles and videos that can help you work with questionnaires in your KCM GRC platform.",
      "locale": "en-us",
      "source_locale": "en-us",
      "outdated": false,
      "parent_section_id": 360003908694,
      "theme_template": "section_page"
    },
    {
      "id": 8745596719379,
      "url": "https://Criscras13.github.io/API_testing/api/v2/help_center/en-us/sections/8745596719379.json",
      "html_url": "https://Criscras13.github.io/API_testing/api/v2/help_center/en-us/sections/8745596719379.html",
      "category_id": 200056750,
      "position": 2,
      "sorting": "manual",
      "created_at": "2022-08-17T14:55:58Z",
      "updated_at": "2025-04-16T21:54:35Z",
      "name": "Requirements and Controls",
      "description": "This section contains articles and videos that can help you work with requirements and controls in your KCM GRC platform.",
      "locale": "en-us",
      "source_locale": "en-us",
      "outdated": false,
      "parent_section_id": 360002828493,
      "theme_template": "section_page"
    },
    {
      "id": 8594903708179,
      "url": "https://Criscras13.github.io/API_testing/api/v2/help_center/en-us/sections/8594903708179.json",
      "html_url": "https://Criscras13.github.io/API_testing/api/v2/help_center/en-us/sections/8594903708179.html",
      "category_id": 200060614,
      "position": 2,
      "sorting": "manual",
      "created_at": "2022-08-11T21:27:06Z",
      "updated_at": "2025-03-11T17:37:40Z",
      "name": "Managing Accounts and Users",
      "description": "This section contains articles related to managing users and accounts. These materials are for Resellers, Managed Service Providers (MSPs), and Multi-Account Organizations using KnowBe4's Security Awareness Training Platform software for their clients.",
      "locale": "en-us",
      "source_locale": "en-us",
      "outdated": false,
      "parent_section_id": 360000156568,
      "theme_template": "section_page"
    },
    {
      "id": 7314544417683,
      "url": "https://Criscras13.github.io/API_testing/api/v2/help_center/en-us/sections/7314544417683.json",
      "html_url": "https://Criscras13.github.io/API_testing/api/v2/help_center/en-us/sections/7314544417683.html",
      "category_id": 200060614,
      "position": 2,
      "sorting": "manual",
      "created_at": "2022-06-27T16:09:31Z",
      "updated_at": "2025-10-14T02:18:14Z",
      "name": "Learner Experience",
      "description": "",
      "locale": "en-us",
      "source_locale": "en-us",
      "outdated": false,
      "parent_section_id": 4406909552915,
      "theme_template": "section_page"
    },
    {
      "id": 4410339705875,
      "url": "https://Criscras13.github.io/API_testing/api/v2/help_center/en-us/sections/4410339705875.json",
      "html_url": "https://Criscras13.github.io/API_testing/api/v2/help_center/en-us/sections/4410339705875.html",
      "category_id": 4406652137875,
      "position": 2,
      "sorting": "manual",
      "created_at": "2021-11-11T22:40:20Z",
      "updated_at": "2025-11-21T17:13:44Z",
      "name": "Learner Support",
      "description": "",
      "locale": "en-us",
      "source_locale": "en-us",
      "outdated": false,
      "parent_section_id": null,
      "theme_template": "section_page"
    },
    {
      "id": 4406698361107,
      "url": "https://Criscras13.github.io/API_testing/api/v2/help_center/en-us/sections/4406698361107.json",
      "html_url": "https://Criscras13.github.io/API_testing/api/v2/help_center/en-us/sections/4406698361107.html",
      "category_id": 4406652137875,
      "position": 2,
      "sorting": "manual",
      "created_at": "2021-09-10T15:10:09Z",
      "updated_at": "2025-09-19T20:43:17Z",
      "name": "Chrome Extension PAB",
      "description": "",
      "locale": "en-us",
      "source_locale": "en-us",
      "outdated": false,
      "parent_section_id": 20421348089875,
      "theme_template": "section_page"
    },
    {
      "id": 360000292987,
      "url": "https://Criscras13.github.io/API_testing/api/v2/help_center/en-us/sections/360000292987.json",
      "html_url": "https://Criscras13.github.io/API_testing/api/v2/help_center/en-us/sections/360000292987.html",
      "category_id": 200218607,
      "position": 2,
      "sorting": "manual",
      "created_at": "2018-06-25T22:02:07Z",
      "updated_at": "2025-08-07T15:57:17Z",
      "name": "Breached Password Test",
      "description": "",
      "locale": "en-us",
      "source_locale": "en-us",
      "outdated": false,
      "parent_section_id": null,
      "theme_template": "section_page"
    },
    {
      "id": 360000156808,
      "url": "https://Criscras13.github.io/API_testing/api/v2/help_center/en-us/sections/360000156808.json",
      "html_url": "https://Criscras13.github.io/API_testing/api/v2/help_center/en-us/sections/360000156808.html",
      "category_id": 200056750,
      "position": 2,
      "sorting": "manual",
      "created_at": "2018-03-30T19:52:18Z",
      "updated_at": "2025-05-27T14:59:22Z",
      "name": "General Information",
      "description": "This section contains general information about KCM GRC. The articles and videos in this section are about tabs and areas that are outside of the four KCM GRC modules.",
      "locale": "en-us",
      "source_locale": "en-us",
      "outdated": false,
      "parent_section_id": null,
      "theme_template": "section_page"
    },
    {
      "id": 360000154727,
      "url": "https://Criscras13.github.io/API_testing/api/v2/help_center/en-us/sections/360000154727.json",
      "html_url": "https://Criscras13.github.io/API_testing/api/v2/help_center/en-us/sections/360000154727.html",
      "category_id": 200060614,
      "position": 2,
      "sorting": "manual",
      "created_at": "2018-03-30T19:46:11Z",
      "updated_at": "2025-11-21T17:13:25Z",
      "name": "Setting Up User Provisioning",
      "description": "",
      "locale": "en-us",
      "source_locale": "en-us",
      "outdated": false,
      "parent_section_id": 360000154687,
      "theme_template": "section_page"
    },
    {
      "id": 360000154687,
      "url": "https://Criscras13.github.io/API_testing/api/v2/help_center/en-us/sections/360000154687.json",
      "html_url": "https://Criscras13.github.io/API_testing/api/v2/help_center/en-us/sections/360000154687.html",
      "category_id": 200060614,
      "position": 2,
      "sorting": "manual",
      "created_at": "2018-03-30T19:44:50Z",
      "updated_at": "2025-11-26T20:50:54Z",
      "name": "Managing Users and Groups",
      "description": "",
      "locale": "en-us",
      "source_locale": "en-us",
      "outdated": false,
      "parent_section_id": 4406914335763,
      "theme_template": "section_page"
    },
    {
      "id": 360000156548,
      "url": "https://Criscras13.github.io/API_testing/api/v2/help_center/en-us/sections/360000156548.json",
      "html_url": "https://Criscras13.github.io/API_testing/api/v2/help_center/en-us/sections/360000156548.html",
      "category_id": 200060614,
      "position": 2,
      "sorting": "manual",
      "created_at": "2018-03-30T19:42:56Z",
      "updated_at": "2025-11-25T21:21:17Z",
      "name": "Phishing Templates and Landing Pages",
      "description": "",
      "locale": "en-us",
      "source_locale": "en-us",
      "outdated": false,
      "parent_section_id": 4406909537299,
      "theme_template": "section_page"
    },
    {
      "id": 39403136848275,
      "url": "https://Criscras13.github.io/API_testing/api/v2/help_center/en-us/sections/39403136848275.json",
      "html_url": "https://Criscras13.github.io/API_testing/api/v2/help_center/en-us/sections/39403136848275.html",
      "category_id": 39401660387859,
      "position": 3,
      "sorting": "manual",
      "created_at": "2025-03-14T18:33:36Z",
      "updated_at": "2025-08-08T10:03:15Z",
      "name": "Troubleshooting",
      "description": "",
      "locale": "en-us",
      "source_locale": "en-us",
      "outdated": false,
      "parent_section_id": null,
      "theme_template": "section_page"
    }
  ],
  "page": 4,
  "previous_page": "https://support.knowbe4.com/api/v2/help_center/en-us/sections_3.json",
  "next_page": "https://support.knowbe4.com/api/v2/help_center/en-us/sections_5.json",
  "per_page": 30,
  "page_count": 7,
  "count": 202,
  "sort_by": "position",
  "sort_order": "asc"
}