{
  "sections": [
    {
      "id": 39401799293075,
      "url": "https://Criscras13.github.io/API_testing/api/v2/help_center/en-us/sections/39401799293075.json",
      "html_url": "https://Criscras13.github.io/API_testing/api/v2/help_center/en-us/sections/39401799293075.html",
      "category_id": 39401641458195,
      "position": 3,
      "sorting": "manual",
      "created_at": "2025-03-14T17:58:30Z",
      "updated_at": "2025-08-13T20:36:54Z",
      "name": "Admin Support",
      "description": "",
      "locale": "en-us",
      "source_locale": "en-us",
      "outdated": false,
      "parent_section_id": null,
      "theme_template": "section_page"
    },
    {
      "id": 35656808418195,
      "url": "https://Criscras13.github.io/API_testing/api/v2/help_center/en-us/sections/35656808418195.json",
      "html_url": "https://Criscras13.github.io/API_testing/api/v2/help_center/en-us/sections/35656808418195.html",
      "category_id": 35417481372307,
      "position": 3,
      "sorting": "manual",
      "created_at": "2024-11-21T19:02:04Z",
      "updated_at": "2025-11-12T12:55:25Z",
      "name": "User Guides",
      "description": "",
      "locale": "en-us",
      "source_locale": "en-us",
      "outdated": false,
      "parent_section_id": null,
      "theme_template": "section_page"
    },
    {
      "id": 26429831617683,
      "url": "https://Criscras13.github.io/API_testing/api/v2/help_center/en-us/sections/26429831617683.json",
      "html_url": "https://Criscras13.github.io/API_testing/api/v2/help_center/en-us/sections/26429831617683.html",
      "category_id": 200060614,
      "position": 3,
      "sorting": "manual",
      "created_at": "2024-02-16T22:00:35Z",
      "updated_at": "2025-09-29T14:38:46Z",
      "name": "Assessments and Surveys",
      "description": "",
      "locale": "en-us",
      "source_locale": "en-us",
      "outdated": false,
      "parent_section_id": 4406921551379,
      "theme_template": "section_page"
    },
    {
      "id": 26429650317203,
      "url": "https://Criscras13.github.io/API_testing/api/v2/help_center/en-us/sections/26429650317203.json",
      "html_url": "https://Criscras13.github.io/API_testing/api/v2/help_center/en-us/sections/26429650317203.html",
      "category_id": 200060614,
      "position": 3,
      "sorting": "manual",
      "created_at": "2024-02-16T21:55:46Z",
      "updated_at": "2025-10-27T20:01:51Z",
      "name": "FAQs and Troubleshooting",
      "description": "",
      "locale": "en-us",
      "source_locale": "en-us",
      "outdated": false,
      "parent_section_id": 4406909552915,
      "theme_template": "section_page"
    },
    {
      "id": 26428411265939,
      "url": "https://Criscras13.github.io/API_testing/api/v2/help_center/en-us/sections/26428411265939.json",
      "html_url": "https://Criscras13.github.io/API_testing/api/v2/help_center/en-us/sections/26428411265939.html",
      "category_id": 200060614,
      "position": 3,
      "sorting": "manual",
      "created_at": "2024-02-16T21:25:15Z",
      "updated_at": "2025-11-19T19:01:20Z",
      "name": "Placeholders",
      "description": "",
      "locale": "en-us",
      "source_locale": "en-us",
      "outdated": false,
      "parent_section_id": 360000156548,
      "theme_template": "section_page"
    },
    {
      "id": 26427575005331,
      "url": "https://Criscras13.github.io/API_testing/api/v2/help_center/en-us/sections/26427575005331.json",
      "html_url": "https://Criscras13.github.io/API_testing/api/v2/help_center/en-us/sections/26427575005331.html",
      "category_id": 200060614,
      "position": 3,
      "sorting": "manual",
      "created_at": "2024-02-16T21:06:17Z",
      "updated_at": "2025-10-29T17:12:12Z",
      "name": "Training Reports",
      "description": "",
      "locale": "en-us",
      "source_locale": "en-us",
      "outdated": false,
      "parent_section_id": 360000156668,
      "theme_template": "section_page"
    },
    {
      "id": 26420669305107,
      "url": "https://Criscras13.github.io/API_testing/api/v2/help_center/en-us/sections/26420669305107.json",
      "html_url": "https://Criscras13.github.io/API_testing/api/v2/help_center/en-us/sections/26420669305107.html",
      "category_id": 200060614,
      "position": 3,
      "sorting": "manual",
      "created_at": "2024-02-16T18:29:48Z",
      "updated_at": "2025-11-25T21:56:22Z",
      "name": "FAQs and Troubleshooting",
      "description": "",
      "locale": "en-us",
      "source_locale": "en-us",
      "outdated": false,
      "parent_section_id": 4406909537299,
      "theme_template": "section_page"
    },
    {
      "id": 26412611481875,
      "url": "https://Criscras13.github.io/API_testing/api/v2/help_center/en-us/sections/26412611481875.json",
      "html_url": "https://Criscras13.github.io/API_testing/api/v2/help_center/en-us/sections/26412611481875.html",
      "category_id": 200060614,
      "position": 3,
      "sorting": "manual",
      "created_at": "2024-02-16T15:53:55Z",
      "updated_at": "2025-11-26T20:50:54Z",
      "name": "Setting Up User Messaging",
      "description": "",
      "locale": "en-us",
      "source_locale": "en-us",
      "outdated": false,
      "parent_section_id": 360000154687,
      "theme_template": "section_page"
    },
    {
      "id": 26412396901011,
      "url": "https://Criscras13.github.io/API_testing/api/v2/help_center/en-us/sections/26412396901011.json",
      "html_url": "https://Criscras13.github.io/API_testing/api/v2/help_center/en-us/sections/26412396901011.html",
      "category_id": 200060614,
      "position": 3,
      "sorting": "manual",
      "created_at": "2024-02-16T15:49:58Z",
      "updated_at": "2025-11-26T20:14:18Z",
      "name": "FAQs",
      "description": "",
      "locale": "en-us",
      "source_locale": "en-us",
      "outdated": false,
      "parent_section_id": 20158407010963,
      "theme_template": "section_page"
    },
    {
      "id": 26266059006099,
      "url": "https://Criscras13.github.io/API_testing/api/v2/help_center/en-us/sections/26266059006099.json",
      "html_url": "https://Criscras13.github.io/API_testing/api/v2/help_center/en-us/sections/26266059006099.html",
      "category_id": 200060614,
      "position": 3,
      "sorting": "manual",
      "created_at": "2024-02-13T13:04:39Z",
      "updated_at": "2025-09-25T20:04:21Z",
      "name": "Automated Security Awareness Program (ASAP)",
      "description": "",
      "locale": "en-us",
      "source_locale": "en-us",
      "outdated": false,
      "parent_section_id": 360000156528,
      "theme_template": "section_page"
    },
    {
      "id": 26245499149971,
      "url": "https://Criscras13.github.io/API_testing/api/v2/help_center/en-us/sections/26245499149971.json",
      "html_url": "https://Criscras13.github.io/API_testing/api/v2/help_center/en-us/sections/26245499149971.html",
      "category_id": 200060614,
      "position": 3,
      "sorting": "manual",
      "created_at": "2024-02-12T20:33:06Z",
      "updated_at": "2025-06-19T18:00:18Z",
      "name": "Smart Hosting",
      "description": "",
      "locale": "en-us",
      "source_locale": "en-us",
      "outdated": false,
      "parent_section_id": 360000156608,
      "theme_template": "section_page"
    },
    {
      "id": 20421408744723,
      "url": "https://Criscras13.github.io/API_testing/api/v2/help_center/en-us/sections/20421408744723.json",
      "html_url": "https://Criscras13.github.io/API_testing/api/v2/help_center/en-us/sections/20421408744723.html",
      "category_id": 4406652137875,
      "position": 3,
      "sorting": "manual",
      "created_at": "2023-09-06T20:18:22Z",
      "updated_at": "2025-10-24T20:22:10Z",
      "name": "Setting Up Integrations",
      "description": "",
      "locale": "en-us",
      "source_locale": "en-us",
      "outdated": false,
      "parent_section_id": 20421506472979,
      "theme_template": "section_page"
    },
    {
      "id": 20421348089875,
      "url": "https://Criscras13.github.io/API_testing/api/v2/help_center/en-us/sections/20421348089875.json",
      "html_url": "https://Criscras13.github.io/API_testing/api/v2/help_center/en-us/sections/20421348089875.html",
      "category_id": 4406652137875,
      "position": 3,
      "sorting": "manual",
      "created_at": "2023-09-06T20:16:32Z",
      "updated_at": "2025-10-21T03:50:28Z",
      "name": "Google PABs",
      "description": "",
      "locale": "en-us",
      "source_locale": "en-us",
      "outdated": false,
      "parent_section_id": 27812338777619,
      "theme_template": "section_page"
    },
    {
      "id": 20417859554707,
      "url": "https://Criscras13.github.io/API_testing/api/v2/help_center/en-us/sections/20417859554707.json",
      "html_url": "https://Criscras13.github.io/API_testing/api/v2/help_center/en-us/sections/20417859554707.html",
      "category_id": 360001227394,
      "position": 3,
      "sorting": "manual",
      "created_at": "2023-09-06T18:55:59Z",
      "updated_at": "2025-09-02T16:10:56Z",
      "name": "Dispositioning Emails",
      "description": "",
      "locale": "en-us",
      "source_locale": "en-us",
      "outdated": false,
      "parent_section_id": 41219229384723,
      "theme_template": "section_page"
    },
    {
      "id": 20416315252371,
      "url": "https://Criscras13.github.io/API_testing/api/v2/help_center/en-us/sections/20416315252371.json",
      "html_url": "https://Criscras13.github.io/API_testing/api/v2/help_center/en-us/sections/20416315252371.html",
      "category_id": 10948147384211,
      "position": 3,
      "sorting": "manual",
      "created_at": "2023-09-06T18:18:02Z",
      "updated_at": "2025-10-29T17:05:27Z",
      "name": "Setting Up User Mapping",
      "description": "",
      "locale": "en-us",
      "source_locale": "en-us",
      "outdated": false,
      "parent_section_id": 10969864451091,
      "theme_template": "section_page"
    },
    {
      "id": 20415401427219,
      "url": "https://Criscras13.github.io/API_testing/api/v2/help_center/en-us/sections/20415401427219.json",
      "html_url": "https://Criscras13.github.io/API_testing/api/v2/help_center/en-us/sections/20415401427219.html",
      "category_id": 200060614,
      "position": 3,
      "sorting": "manual",
      "created_at": "2023-09-06T18:00:11Z",
      "updated_at": "2025-08-20T13:25:56Z",
      "name": "Understanding the Learner App",
      "description": "",
      "locale": "en-us",
      "source_locale": "en-us",
      "outdated": false,
      "parent_section_id": 360000156628,
      "theme_template": "section_page"
    },
    {
      "id": 8745430305427,
      "url": "https://Criscras13.github.io/API_testing/api/v2/help_center/en-us/sections/8745430305427.json",
      "html_url": "https://Criscras13.github.io/API_testing/api/v2/help_center/en-us/sections/8745430305427.html",
      "category_id": 200056750,
      "position": 3,
      "sorting": "manual",
      "created_at": "2022-08-17T14:51:29Z",
      "updated_at": "2025-05-27T14:59:14Z",
      "name": "Evidence and Tasks",
      "description": "This section contains articles and videos that can help you work with evidence and tasks in your KCM GRC platform.",
      "locale": "en-us",
      "source_locale": "en-us",
      "outdated": false,
      "parent_section_id": 360002828493,
      "theme_template": "section_page"
    },
    {
      "id": 8594969672211,
      "url": "https://Criscras13.github.io/API_testing/api/v2/help_center/en-us/sections/8594969672211.json",
      "html_url": "https://Criscras13.github.io/API_testing/api/v2/help_center/en-us/sections/8594969672211.html",
      "category_id": 200060614,
      "position": 3,
      "sorting": "manual",
      "created_at": "2022-08-11T21:29:57Z",
      "updated_at": "2025-09-09T13:05:03Z",
      "name": "Conducting Phishing Campaigns",
      "description": "",
      "locale": "en-us",
      "source_locale": "en-us",
      "outdated": false,
      "parent_section_id": 360000156568,
      "theme_template": "section_page"
    },
    {
      "id": 4406909537299,
      "url": "https://Criscras13.github.io/API_testing/api/v2/help_center/en-us/sections/4406909537299.json",
      "html_url": "https://Criscras13.github.io/API_testing/api/v2/help_center/en-us/sections/4406909537299.html",
      "category_id": 200060614,
      "position": 3,
      "sorting": "manual",
      "created_at": "2021-09-14T15:26:44Z",
      "updated_at": "2025-11-25T21:56:22Z",
      "name": "Conducting Phishing Campaigns",
      "description": "",
      "locale": "en-us",
      "source_locale": "en-us",
      "outdated": false,
      "parent_section_id": 4406914335763,
      "theme_template": "section_page"
    },
    {
      "id": 4406704411027,
      "url": "https://Criscras13.github.io/API_testing/api/v2/help_center/en-us/sections/4406704411027.json",
      "html_url": "https://Criscras13.github.io/API_testing/api/v2/help_center/en-us/sections/4406704411027.html",
      "category_id": 200056750,
      "position": 3,
      "sorting": "manual",
      "created_at": "2021-09-10T15:32:37Z",
      "updated_at": "2025-03-11T17:24:46Z",
      "name": "Reporting",
      "description": "This section contains articles that can help you create and use reports in your KCM GRC platform. ",
      "locale": "en-us",
      "source_locale": "en-us",
      "outdated": false,
      "parent_section_id": 360000156808,
      "theme_template": "section_page"
    },
    {
      "id": 4406698342547,
      "url": "https://Criscras13.github.io/API_testing/api/v2/help_center/en-us/sections/4406698342547.json",
      "html_url": "https://Criscras13.github.io/API_testing/api/v2/help_center/en-us/sections/4406698342547.html",
      "category_id": 4406652137875,
      "position": 3,
      "sorting": "manual",
      "created_at": "2021-09-10T15:09:28Z",
      "updated_at": "2025-10-21T03:50:28Z",
      "name": "Gmail Add-on PAB",
      "description": "",
      "locale": "en-us",
      "source_locale": "en-us",
      "outdated": false,
      "parent_section_id": 20421348089875,
      "theme_template": "section_page"
    },
    {
      "id": 360011640414,
      "url": "https://Criscras13.github.io/API_testing/api/v2/help_center/en-us/sections/360011640414.json",
      "html_url": "https://Criscras13.github.io/API_testing/api/v2/help_center/en-us/sections/360011640414.html",
      "category_id": 8816505020819,
      "position": 3,
      "sorting": "manual",
      "created_at": "2021-03-10T21:06:59Z",
      "updated_at": "2025-11-20T19:01:39Z",
      "name": "KnowBe4 Security",
      "description": "Learn how KnowBe4 keeps your data safe.",
      "locale": "en-us",
      "source_locale": "en-us",
      "outdated": false,
      "parent_section_id": null,
      "theme_template": "section_page"
    },
    {
      "id": 360008465274,
      "url": "https://Criscras13.github.io/API_testing/api/v2/help_center/en-us/sections/360008465274.json",
      "html_url": "https://Criscras13.github.io/API_testing/api/v2/help_center/en-us/sections/360008465274.html",
      "category_id": 200218607,
      "position": 3,
      "sorting": "manual",
      "created_at": "2020-05-13T18:34:06Z",
      "updated_at": "2025-09-05T15:37:39Z",
      "name": "Browser Password Inspector",
      "description": "",
      "locale": "en-us",
      "source_locale": "en-us",
      "outdated": false,
      "parent_section_id": null,
      "theme_template": "section_page"
    },
    {
      "id": 360002828493,
      "url": "https://Criscras13.github.io/API_testing/api/v2/help_center/en-us/sections/360002828493.json",
      "html_url": "https://Criscras13.github.io/API_testing/api/v2/help_center/en-us/sections/360002828493.html",
      "category_id": 200056750,
      "position": 3,
      "sorting": "manual",
      "created_at": "2018-12-17T14:24:48Z",
      "updated_at": "2025-05-27T14:59:14Z",
      "name": "Compliance Management Module",
      "description": "This section contains articles that can help you use the KCM GRC Compliance Management module.",
      "locale": "en-us",
      "source_locale": "en-us",
      "outdated": false,
      "parent_section_id": null,
      "theme_template": "section_page"
    },
    {
      "id": 39403165232275,
      "url": "https://Criscras13.github.io/API_testing/api/v2/help_center/en-us/sections/39403165232275.json",
      "html_url": "https://Criscras13.github.io/API_testing/api/v2/help_center/en-us/sections/39403165232275.html",
      "category_id": 39401660387859,
      "position": 4,
      "sorting": "manual",
      "created_at": "2025-03-14T18:33:41Z",
      "updated_at": "2025-08-15T19:01:34Z",
      "name": "FAQs",
      "description": "",
      "locale": "en-us",
      "source_locale": "en-us",
      "outdated": false,
      "parent_section_id": null,
      "theme_template": "section_page"
    },
    {
      "id": 39401829147923,
      "url": "https://Criscras13.github.io/API_testing/api/v2/help_center/en-us/sections/39401829147923.json",
      "html_url": "https://Criscras13.github.io/API_testing/api/v2/help_center/en-us/sections/39401829147923.html",
      "category_id": 39401641458195,
      "position": 4,
      "sorting": "manual",
      "created_at": "2025-03-14T17:59:54Z",
      "updated_at": "2025-08-11T16:41:46Z",
      "name": "User Guides",
      "description": "",
      "locale": "en-us",
      "source_locale": "en-us",
      "outdated": false,
      "parent_section_id": null,
      "theme_template": "section_page"
    },
    {
      "id": 35656764370963,
      "url": "https://Criscras13.github.io/API_testing/api/v2/help_center/en-us/sections/35656764370963.json",
      "html_url": "https://Criscras13.github.io/API_testing/api/v2/help_center/en-us/sections/35656764370963.html",
      "category_id": 35417481372307,
      "position": 4,
      "sorting": "manual",
      "created_at": "2024-11-21T19:01:48Z",
      "updated_at": "2025-11-18T18:38:03Z",
      "name": "Deployment",
      "description": "",
      "locale": "en-us",
      "source_locale": "en-us",
      "outdated": false,
      "parent_section_id": null,
      "theme_template": "section_page"
    },
    {
      "id": 26429844577683,
      "url": "https://Criscras13.github.io/API_testing/api/v2/help_center/en-us/sections/26429844577683.json",
      "html_url": "https://Criscras13.github.io/API_testing/api/v2/help_center/en-us/sections/26429844577683.html",
      "category_id": 200060614,
      "position": 4,
      "sorting": "manual",
      "created_at": "2024-02-16T22:00:23Z",
      "updated_at": "2025-10-22T21:25:31Z",
      "name": "Policies",
      "description": "",
      "locale": "en-us",
      "source_locale": "en-us",
      "outdated": false,
      "parent_section_id": 4406921551379,
      "theme_template": "section_page"
    },
    {
      "id": 26427750945555,
      "url": "https://Criscras13.github.io/API_testing/api/v2/help_center/en-us/sections/26427750945555.json",
      "html_url": "https://Criscras13.github.io/API_testing/api/v2/help_center/en-us/sections/26427750945555.html",
      "category_id": 200060614,
      "position": 4,
      "sorting": "manual",
      "created_at": "2024-02-16T21:11:05Z",
      "updated_at": "2025-11-26T20:27:12Z",
      "name": "Risk Scores",
      "description": "",
      "locale": "en-us",
      "source_locale": "en-us",
      "outdated": false,
      "parent_section_id": 360000156668,
      "theme_template": "section_page"
    },
    {
      "id": 20417999496339,
      "url": "https://Criscras13.github.io/API_testing/api/v2/help_center/en-us/sections/20417999496339.json",
      "html_url": "https://Criscras13.github.io/API_testing/api/v2/help_center/en-us/sections/20417999496339.html",
      "category_id": 360001227394,
      "position": 4,
      "sorting": "manual",
      "created_at": "2023-09-06T18:58:34Z",
      "updated_at": "2025-07-14T18:27:52Z",
      "name": "Working with Blocklists",
      "description": "",
      "locale": "en-us",
      "source_locale": "en-us",
      "outdated": false,
      "parent_section_id": 41219229384723,
      "theme_template": "section_page"
    }
  ],
  "page": 5,
  "previous_page": "https://support.knowbe4.com/api/v2/help_center/en-us/sections_4.json",
  "next_page": "https://support.knowbe4.com/api/v2/help_center/en-us/sections_6.json",
  "per_page": 30,
  "page_count": 7,
  "count": 202,
  "sort_by": "position",
  "sort_order": "asc"
}