{
  "sections": [
    {
      "id": 27890018279827,
      "url": "https://Criscras13.github.io/API_testing/api/v2/help_center/en-us/sections/27890018279827.json",
      "html_url": "https://Criscras13.github.io/API_testing/api/v2/help_center/en-us/sections/27890018279827.html",
      "category_id": 8816505020819,
      "position": 1,
      "sorting": "manual",
      "created_at": "2024-03-28T20:00:32Z",
      "updated_at": "2025-10-16T18:50:59Z",
      "name": "Quarterly Product Update Videos",
      "description": "",
      "locale": "en-us",
      "source_locale": "en-us",
      "outdated": false,
      "parent_section_id": 360000154747,
      "theme_template": "section_page"
    },
    {
      "id": 27812338777619,
      "url": "https://Criscras13.github.io/API_testing/api/v2/help_center/en-us/sections/27812338777619.json",
      "html_url": "https://Criscras13.github.io/API_testing/api/v2/help_center/en-us/sections/27812338777619.html",
      "category_id": 4406652137875,
      "position": 1,
      "sorting": "manual",
      "created_at": "2024-03-26T17:58:31Z",
      "updated_at": "2025-11-24T22:14:10Z",
      "name": "Installing and Configuring",
      "description": "",
      "locale": "en-us",
      "source_locale": "en-us",
      "outdated": false,
      "parent_section_id": 20421506472979,
      "theme_template": "section_page"
    },
    {
      "id": 26854500637587,
      "url": "https://Criscras13.github.io/API_testing/api/v2/help_center/en-us/sections/26854500637587.json",
      "html_url": "https://Criscras13.github.io/API_testing/api/v2/help_center/en-us/sections/26854500637587.html",
      "category_id": 10948147384211,
      "position": 1,
      "sorting": "manual",
      "created_at": "2024-02-28T20:40:37Z",
      "updated_at": "2025-06-18T18:03:00Z",
      "name": "Learner Support",
      "description": "",
      "locale": "en-us",
      "source_locale": "en-us",
      "outdated": false,
      "parent_section_id": null,
      "theme_template": "section_page"
    },
    {
      "id": 26430501271187,
      "url": "https://Criscras13.github.io/API_testing/api/v2/help_center/en-us/sections/26430501271187.json",
      "html_url": "https://Criscras13.github.io/API_testing/api/v2/help_center/en-us/sections/26430501271187.html",
      "category_id": 200060614,
      "position": 1,
      "sorting": "manual",
      "created_at": "2024-02-16T22:13:34Z",
      "updated_at": "2025-08-20T14:58:07Z",
      "name": "Content Manager",
      "description": "",
      "locale": "en-us",
      "source_locale": "en-us",
      "outdated": false,
      "parent_section_id": 4406921551379,
      "theme_template": "section_page"
    },
    {
      "id": 26428433532179,
      "url": "https://Criscras13.github.io/API_testing/api/v2/help_center/en-us/sections/26428433532179.json",
      "html_url": "https://Criscras13.github.io/API_testing/api/v2/help_center/en-us/sections/26428433532179.html",
      "category_id": 200060614,
      "position": 1,
      "sorting": "manual",
      "created_at": "2024-02-16T21:26:14Z",
      "updated_at": "2025-11-25T21:21:17Z",
      "name": "Landing Pages",
      "description": "",
      "locale": "en-us",
      "source_locale": "en-us",
      "outdated": false,
      "parent_section_id": 360000156548,
      "theme_template": "section_page"
    },
    {
      "id": 26427537618451,
      "url": "https://Criscras13.github.io/API_testing/api/v2/help_center/en-us/sections/26427537618451.json",
      "html_url": "https://Criscras13.github.io/API_testing/api/v2/help_center/en-us/sections/26427537618451.html",
      "category_id": 200060614,
      "position": 1,
      "sorting": "manual",
      "created_at": "2024-02-16T21:06:34Z",
      "updated_at": "2025-11-19T19:01:23Z",
      "name": "Executive Reports",
      "description": "",
      "locale": "en-us",
      "source_locale": "en-us",
      "outdated": false,
      "parent_section_id": 360000156668,
      "theme_template": "section_page"
    },
    {
      "id": 26411003678355,
      "url": "https://Criscras13.github.io/API_testing/api/v2/help_center/en-us/sections/26411003678355.json",
      "html_url": "https://Criscras13.github.io/API_testing/api/v2/help_center/en-us/sections/26411003678355.html",
      "category_id": 200060614,
      "position": 1,
      "sorting": "manual",
      "created_at": "2024-02-16T15:24:03Z",
      "updated_at": "2025-11-21T17:13:25Z",
      "name": "SCIM",
      "description": "",
      "locale": "en-us",
      "source_locale": "en-us",
      "outdated": false,
      "parent_section_id": 360000154727,
      "theme_template": "section_page"
    },
    {
      "id": 26266430305299,
      "url": "https://Criscras13.github.io/API_testing/api/v2/help_center/en-us/sections/26266430305299.json",
      "html_url": "https://Criscras13.github.io/API_testing/api/v2/help_center/en-us/sections/26266430305299.html",
      "category_id": 200060614,
      "position": 1,
      "sorting": "manual",
      "created_at": "2024-02-13T13:20:30Z",
      "updated_at": "2025-10-29T17:05:24Z",
      "name": "Training and Learner Experience (LX)",
      "description": "",
      "locale": "en-us",
      "source_locale": "en-us",
      "outdated": false,
      "parent_section_id": 4406922364307,
      "theme_template": "section_page"
    },
    {
      "id": 26244255157139,
      "url": "https://Criscras13.github.io/API_testing/api/v2/help_center/en-us/sections/26244255157139.json",
      "html_url": "https://Criscras13.github.io/API_testing/api/v2/help_center/en-us/sections/26244255157139.html",
      "category_id": 200060614,
      "position": 1,
      "sorting": "manual",
      "created_at": "2024-02-12T20:03:17Z",
      "updated_at": "2025-04-16T21:59:40Z",
      "name": "Google",
      "description": "",
      "locale": "en-us",
      "source_locale": "en-us",
      "outdated": false,
      "parent_section_id": 20037043491347,
      "theme_template": "section_page"
    },
    {
      "id": 20421506472979,
      "url": "https://Criscras13.github.io/API_testing/api/v2/help_center/en-us/sections/20421506472979.json",
      "html_url": "https://Criscras13.github.io/API_testing/api/v2/help_center/en-us/sections/20421506472979.html",
      "category_id": 4406652137875,
      "position": 1,
      "sorting": "manual",
      "created_at": "2023-09-06T20:20:17Z",
      "updated_at": "2025-11-25T21:59:37Z",
      "name": "Admin Support",
      "description": "",
      "locale": "en-us",
      "source_locale": "en-us",
      "outdated": false,
      "parent_section_id": null,
      "theme_template": "section_page"
    },
    {
      "id": 20416693775123,
      "url": "https://Criscras13.github.io/API_testing/api/v2/help_center/en-us/sections/20416693775123.json",
      "html_url": "https://Criscras13.github.io/API_testing/api/v2/help_center/en-us/sections/20416693775123.html",
      "category_id": 360001227394,
      "position": 1,
      "sorting": "manual",
      "created_at": "2023-09-06T18:28:08Z",
      "updated_at": "2025-07-30T15:59:24Z",
      "name": "Understanding YARA Rules",
      "description": "",
      "locale": "en-us",
      "source_locale": "en-us",
      "outdated": false,
      "parent_section_id": 20416702417939,
      "theme_template": "section_page"
    },
    {
      "id": 20416681683219,
      "url": "https://Criscras13.github.io/API_testing/api/v2/help_center/en-us/sections/20416681683219.json",
      "html_url": "https://Criscras13.github.io/API_testing/api/v2/help_center/en-us/sections/20416681683219.html",
      "category_id": 360001227394,
      "position": 1,
      "sorting": "manual",
      "created_at": "2023-09-06T18:26:56Z",
      "updated_at": "2025-10-21T19:42:59Z",
      "name": "Viewing Reported Emails",
      "description": "",
      "locale": "en-us",
      "source_locale": "en-us",
      "outdated": false,
      "parent_section_id": 41219229384723,
      "theme_template": "section_page"
    },
    {
      "id": 20158504760083,
      "url": "https://Criscras13.github.io/API_testing/api/v2/help_center/en-us/sections/20158504760083.json",
      "html_url": "https://Criscras13.github.io/API_testing/api/v2/help_center/en-us/sections/20158504760083.html",
      "category_id": 200060614,
      "position": 1,
      "sorting": "manual",
      "created_at": "2023-08-31T20:22:28Z",
      "updated_at": "2025-11-19T19:00:59Z",
      "name": "Security Roles",
      "description": "",
      "locale": "en-us",
      "source_locale": "en-us",
      "outdated": false,
      "parent_section_id": 20158407010963,
      "theme_template": "section_page"
    },
    {
      "id": 20037106189331,
      "url": "https://Criscras13.github.io/API_testing/api/v2/help_center/en-us/sections/20037106189331.json",
      "html_url": "https://Criscras13.github.io/API_testing/api/v2/help_center/en-us/sections/20037106189331.html",
      "category_id": 200060614,
      "position": 1,
      "sorting": "manual",
      "created_at": "2023-08-29T17:57:03Z",
      "updated_at": "2025-11-07T19:33:56Z",
      "name": "Whitelisting Spam Filters",
      "description": "",
      "locale": "en-us",
      "source_locale": "en-us",
      "outdated": false,
      "parent_section_id": 360000156608,
      "theme_template": "section_page"
    },
    {
      "id": 11759045401491,
      "url": "https://Criscras13.github.io/API_testing/api/v2/help_center/en-us/sections/11759045401491.json",
      "html_url": "https://Criscras13.github.io/API_testing/api/v2/help_center/en-us/sections/11759045401491.html",
      "category_id": 200060614,
      "position": 1,
      "sorting": "manual",
      "created_at": "2022-12-01T22:41:49Z",
      "updated_at": "2025-08-25T15:28:51Z",
      "name": "QR Code Phishing",
      "description": "This section contains articles to help you conduct QR Code Phishing Campaigns in KnowBe4\u2019s Security Awareness Training Platform software.",
      "locale": "en-us",
      "source_locale": "en-us",
      "outdated": false,
      "parent_section_id": 360000156648,
      "theme_template": "section_page"
    },
    {
      "id": 10969917980435,
      "url": "https://Criscras13.github.io/API_testing/api/v2/help_center/en-us/sections/10969917980435.json",
      "html_url": "https://Criscras13.github.io/API_testing/api/v2/help_center/en-us/sections/10969917980435.html",
      "category_id": 10948147384211,
      "position": 1,
      "sorting": "title",
      "created_at": "2022-11-04T13:55:20Z",
      "updated_at": "2025-11-26T21:14:02Z",
      "name": "Setting Up Integrations",
      "description": "",
      "locale": "en-us",
      "source_locale": "en-us",
      "outdated": false,
      "parent_section_id": 10969864451091,
      "theme_template": "section_page"
    },
    {
      "id": 9802492800275,
      "url": "https://Criscras13.github.io/API_testing/api/v2/help_center/en-us/sections/9802492800275.json",
      "html_url": "https://Criscras13.github.io/API_testing/api/v2/help_center/en-us/sections/9802492800275.html",
      "category_id": 200056750,
      "position": 1,
      "sorting": "manual",
      "created_at": "2022-09-23T12:38:34Z",
      "updated_at": "2025-03-11T17:59:07Z",
      "name": "Integrations",
      "description": "This section contains articles that can help you integrate your other platforms with KCM GRC.",
      "locale": "en-us",
      "source_locale": "en-us",
      "outdated": false,
      "parent_section_id": 360000156808,
      "theme_template": "section_page"
    },
    {
      "id": 8746041037587,
      "url": "https://Criscras13.github.io/API_testing/api/v2/help_center/en-us/sections/8746041037587.json",
      "html_url": "https://Criscras13.github.io/API_testing/api/v2/help_center/en-us/sections/8746041037587.html",
      "category_id": 200056750,
      "position": 1,
      "sorting": "manual",
      "created_at": "2022-08-17T15:07:56Z",
      "updated_at": "2025-04-21T15:21:05Z",
      "name": "Vendor Profiles",
      "description": "This section contains articles and videos that can help you work with vendor profiles in your KCM GRC platform.",
      "locale": "en-us",
      "source_locale": "en-us",
      "outdated": false,
      "parent_section_id": 360003908694,
      "theme_template": "section_page"
    },
    {
      "id": 8745355339283,
      "url": "https://Criscras13.github.io/API_testing/api/v2/help_center/en-us/sections/8745355339283.json",
      "html_url": "https://Criscras13.github.io/API_testing/api/v2/help_center/en-us/sections/8745355339283.html",
      "category_id": 200056750,
      "position": 1,
      "sorting": "manual",
      "created_at": "2022-08-17T14:49:13Z",
      "updated_at": "2025-05-02T17:59:02Z",
      "name": "Templates and Scopes",
      "description": "This section contains articles that can help you work with templates and scopes in your KCM GRC platform.",
      "locale": "en-us",
      "source_locale": "en-us",
      "outdated": false,
      "parent_section_id": 360002828493,
      "theme_template": "section_page"
    },
    {
      "id": 8594827685267,
      "url": "https://Criscras13.github.io/API_testing/api/v2/help_center/en-us/sections/8594827685267.json",
      "html_url": "https://Criscras13.github.io/API_testing/api/v2/help_center/en-us/sections/8594827685267.html",
      "category_id": 200060614,
      "position": 1,
      "sorting": "manual",
      "created_at": "2022-08-11T21:24:41Z",
      "updated_at": "2025-03-11T17:15:41Z",
      "name": "Setting Up Your Account",
      "description": "",
      "locale": "en-us",
      "source_locale": "en-us",
      "outdated": false,
      "parent_section_id": 360000156568,
      "theme_template": "section_page"
    },
    {
      "id": 4406921551379,
      "url": "https://Criscras13.github.io/API_testing/api/v2/help_center/en-us/sections/4406921551379.json",
      "html_url": "https://Criscras13.github.io/API_testing/api/v2/help_center/en-us/sections/4406921551379.html",
      "category_id": 200060614,
      "position": 1,
      "sorting": "manual",
      "created_at": "2021-09-14T19:47:58Z",
      "updated_at": "2025-10-29T17:11:50Z",
      "name": "ModStore and Training Content",
      "description": "",
      "locale": "en-us",
      "source_locale": "en-us",
      "outdated": false,
      "parent_section_id": 4406909552915,
      "theme_template": "section_page"
    },
    {
      "id": 4406914735251,
      "url": "https://Criscras13.github.io/API_testing/api/v2/help_center/en-us/sections/4406914735251.json",
      "html_url": "https://Criscras13.github.io/API_testing/api/v2/help_center/en-us/sections/4406914735251.html",
      "category_id": 200060614,
      "position": 1,
      "sorting": "manual",
      "created_at": "2021-09-14T15:42:11Z",
      "updated_at": "2025-10-21T03:50:38Z",
      "name": "Understanding Your Dashboard",
      "description": "",
      "locale": "en-us",
      "source_locale": "en-us",
      "outdated": false,
      "parent_section_id": 360000156628,
      "theme_template": "section_page"
    },
    {
      "id": 4406914335763,
      "url": "https://Criscras13.github.io/API_testing/api/v2/help_center/en-us/sections/4406914335763.json",
      "html_url": "https://Criscras13.github.io/API_testing/api/v2/help_center/en-us/sections/4406914335763.html",
      "category_id": 200060614,
      "position": 1,
      "sorting": "manual",
      "created_at": "2021-09-14T15:22:24Z",
      "updated_at": "2025-11-26T20:50:54Z",
      "name": "Admin Support",
      "description": "",
      "locale": "en-us",
      "source_locale": "en-us",
      "outdated": false,
      "parent_section_id": null,
      "theme_template": "section_page"
    },
    {
      "id": 4406698366739,
      "url": "https://Criscras13.github.io/API_testing/api/v2/help_center/en-us/sections/4406698366739.json",
      "html_url": "https://Criscras13.github.io/API_testing/api/v2/help_center/en-us/sections/4406698366739.html",
      "category_id": 4406652137875,
      "position": 1,
      "sorting": "manual",
      "created_at": "2021-09-10T15:10:27Z",
      "updated_at": "2025-10-27T20:03:07Z",
      "name": "Outlook PAB (Client)",
      "description": "",
      "locale": "en-us",
      "source_locale": "en-us",
      "outdated": false,
      "parent_section_id": 20420703398419,
      "theme_template": "section_page"
    },
    {
      "id": 360005208193,
      "url": "https://Criscras13.github.io/API_testing/api/v2/help_center/en-us/sections/360005208193.json",
      "html_url": "https://Criscras13.github.io/API_testing/api/v2/help_center/en-us/sections/360005208193.html",
      "category_id": 200060614,
      "position": 1,
      "sorting": "manual",
      "created_at": "2019-08-15T19:41:10Z",
      "updated_at": "2025-11-12T19:20:35Z",
      "name": "Adding and Managing Groups",
      "description": "",
      "locale": "en-us",
      "source_locale": "en-us",
      "outdated": false,
      "parent_section_id": 360000154687,
      "theme_template": "section_page"
    },
    {
      "id": 360000156888,
      "url": "https://Criscras13.github.io/API_testing/api/v2/help_center/en-us/sections/360000156888.json",
      "html_url": "https://Criscras13.github.io/API_testing/api/v2/help_center/en-us/sections/360000156888.html",
      "category_id": 200218607,
      "position": 1,
      "sorting": "manual",
      "created_at": "2018-03-30T19:54:17Z",
      "updated_at": "2025-06-04T12:53:58Z",
      "name": "Automated Security Awareness Program (ASAP)",
      "description": "",
      "locale": "en-us",
      "source_locale": "en-us",
      "outdated": false,
      "parent_section_id": null,
      "theme_template": "section_page"
    },
    {
      "id": 360000156788,
      "url": "https://Criscras13.github.io/API_testing/api/v2/help_center/en-us/sections/360000156788.json",
      "html_url": "https://Criscras13.github.io/API_testing/api/v2/help_center/en-us/sections/360000156788.html",
      "category_id": 200056750,
      "position": 1,
      "sorting": "manual",
      "created_at": "2018-03-30T19:52:03Z",
      "updated_at": "2025-04-16T21:53:13Z",
      "name": "Getting Started",
      "description": "This category contains articles and videos that can help you get started with your KCM GRC platform. ",
      "locale": "en-us",
      "source_locale": "en-us",
      "outdated": false,
      "parent_section_id": null,
      "theme_template": "section_page"
    },
    {
      "id": 360000156708,
      "url": "https://Criscras13.github.io/API_testing/api/v2/help_center/en-us/sections/360000156708.json",
      "html_url": "https://Criscras13.github.io/API_testing/api/v2/help_center/en-us/sections/360000156708.html",
      "category_id": 200060614,
      "position": 1,
      "sorting": "manual",
      "created_at": "2018-03-30T19:49:15Z",
      "updated_at": "2025-09-05T16:15:55Z",
      "name": "USB Drive Test",
      "description": "Here you'll find articles, FAQs, and videos pertaining to USB Drive tests conducted in your KnowBe4 Security Awareness Training Platform software. ",
      "locale": "en-us",
      "source_locale": "en-us",
      "outdated": false,
      "parent_section_id": 4406914500243,
      "theme_template": "section_page"
    },
    {
      "id": 360000156648,
      "url": "https://Criscras13.github.io/API_testing/api/v2/help_center/en-us/sections/360000156648.json",
      "html_url": "https://Criscras13.github.io/API_testing/api/v2/help_center/en-us/sections/360000156648.html",
      "category_id": 200060614,
      "position": 1,
      "sorting": "manual",
      "created_at": "2018-03-30T19:46:42Z",
      "updated_at": "2025-11-25T20:30:41Z",
      "name": "Phishing Security Tests",
      "description": "",
      "locale": "en-us",
      "source_locale": "en-us",
      "outdated": false,
      "parent_section_id": 4406909537299,
      "theme_template": "section_page"
    },
    {
      "id": 360000156608,
      "url": "https://Criscras13.github.io/API_testing/api/v2/help_center/en-us/sections/360000156608.json",
      "html_url": "https://Criscras13.github.io/API_testing/api/v2/help_center/en-us/sections/360000156608.html",
      "category_id": 200060614,
      "position": 1,
      "sorting": "manual",
      "created_at": "2018-03-30T19:45:55Z",
      "updated_at": "2025-11-26T20:07:27Z",
      "name": "Setting Up Whitelisting",
      "description": "",
      "locale": "en-us",
      "source_locale": "en-us",
      "outdated": false,
      "parent_section_id": 4406914335763,
      "theme_template": "section_page"
    }
  ],
  "page": 3,
  "previous_page": "https://support.knowbe4.com/api/v2/help_center/en-us/sections_2.json",
  "next_page": "https://support.knowbe4.com/api/v2/help_center/en-us/sections_4.json",
  "per_page": 30,
  "page_count": 7,
  "count": 202,
  "sort_by": "position",
  "sort_order": "asc"
}