{
  "sections": [
    {
      "id": 20416655766931,
      "url": "https://Criscras13.github.io/API_testing/api/v2/help_center/en-us/sections/20416655766931.json",
      "html_url": "https://Criscras13.github.io/API_testing/api/v2/help_center/en-us/sections/20416655766931.html",
      "category_id": 360001227394,
      "position": 4,
      "sorting": "manual",
      "created_at": "2023-09-06T18:26:38Z",
      "updated_at": "2025-10-09T17:04:04Z",
      "name": "Account Settings",
      "description": "",
      "locale": "en-us",
      "source_locale": "en-us",
      "outdated": false,
      "parent_section_id": 360002819533,
      "theme_template": "section_page"
    },
    {
      "id": 20416285489043,
      "url": "https://Criscras13.github.io/API_testing/api/v2/help_center/en-us/sections/20416285489043.json",
      "html_url": "https://Criscras13.github.io/API_testing/api/v2/help_center/en-us/sections/20416285489043.html",
      "category_id": 10948147384211,
      "position": 4,
      "sorting": "manual",
      "created_at": "2023-09-06T18:18:25Z",
      "updated_at": "2025-06-20T20:22:46Z",
      "name": "Managing Detection Rules",
      "description": "",
      "locale": "en-us",
      "source_locale": "en-us",
      "outdated": false,
      "parent_section_id": 10969864451091,
      "theme_template": "section_page"
    },
    {
      "id": 20415438485651,
      "url": "https://Criscras13.github.io/API_testing/api/v2/help_center/en-us/sections/20415438485651.json",
      "html_url": "https://Criscras13.github.io/API_testing/api/v2/help_center/en-us/sections/20415438485651.html",
      "category_id": 200060614,
      "position": 4,
      "sorting": "manual",
      "created_at": "2023-09-06T18:00:53Z",
      "updated_at": "2025-08-20T13:27:58Z",
      "name": "Troubleshooting",
      "description": "",
      "locale": "en-us",
      "source_locale": "en-us",
      "outdated": false,
      "parent_section_id": 360000156628,
      "theme_template": "section_page"
    },
    {
      "id": 20037110108051,
      "url": "https://Criscras13.github.io/API_testing/api/v2/help_center/en-us/sections/20037110108051.json",
      "html_url": "https://Criscras13.github.io/API_testing/api/v2/help_center/en-us/sections/20037110108051.html",
      "category_id": 200060614,
      "position": 4,
      "sorting": "manual",
      "created_at": "2023-08-29T17:57:29Z",
      "updated_at": "2025-05-30T13:54:54Z",
      "name": "Troubleshooting",
      "description": "",
      "locale": "en-us",
      "source_locale": "en-us",
      "outdated": false,
      "parent_section_id": 360000156608,
      "theme_template": "section_page"
    },
    {
      "id": 8816697205267,
      "url": "https://Criscras13.github.io/API_testing/api/v2/help_center/en-us/sections/8816697205267.json",
      "html_url": "https://Criscras13.github.io/API_testing/api/v2/help_center/en-us/sections/8816697205267.html",
      "category_id": 8816505020819,
      "position": 4,
      "sorting": "manual",
      "created_at": "2022-08-19T19:31:38Z",
      "updated_at": "2025-10-24T20:47:44Z",
      "name": "FAQs",
      "description": "",
      "locale": "en-us",
      "source_locale": "en-us",
      "outdated": false,
      "parent_section_id": null,
      "theme_template": "section_page"
    },
    {
      "id": 8595204233491,
      "url": "https://Criscras13.github.io/API_testing/api/v2/help_center/en-us/sections/8595204233491.json",
      "html_url": "https://Criscras13.github.io/API_testing/api/v2/help_center/en-us/sections/8595204233491.html",
      "category_id": 200060614,
      "position": 4,
      "sorting": "manual",
      "created_at": "2022-08-11T21:37:35Z",
      "updated_at": "2025-11-11T18:29:30Z",
      "name": "Conducting Training Campaigns",
      "description": "",
      "locale": "en-us",
      "source_locale": "en-us",
      "outdated": false,
      "parent_section_id": 360000156568,
      "theme_template": "section_page"
    },
    {
      "id": 4406909552915,
      "url": "https://Criscras13.github.io/API_testing/api/v2/help_center/en-us/sections/4406909552915.json",
      "html_url": "https://Criscras13.github.io/API_testing/api/v2/help_center/en-us/sections/4406909552915.html",
      "category_id": 200060614,
      "position": 4,
      "sorting": "manual",
      "created_at": "2021-09-14T15:27:24Z",
      "updated_at": "2025-11-21T17:21:18Z",
      "name": "Conducting Training Campaigns",
      "description": "",
      "locale": "en-us",
      "source_locale": "en-us",
      "outdated": false,
      "parent_section_id": 4406914335763,
      "theme_template": "section_page"
    },
    {
      "id": 4406698419347,
      "url": "https://Criscras13.github.io/API_testing/api/v2/help_center/en-us/sections/4406698419347.json",
      "html_url": "https://Criscras13.github.io/API_testing/api/v2/help_center/en-us/sections/4406698419347.html",
      "category_id": 4406652137875,
      "position": 4,
      "sorting": "manual",
      "created_at": "2021-09-10T15:12:48Z",
      "updated_at": "2025-11-25T21:59:36Z",
      "name": "FAQs and Troubleshooting",
      "description": "",
      "locale": "en-us",
      "source_locale": "en-us",
      "outdated": false,
      "parent_section_id": 20421506472979,
      "theme_template": "section_page"
    },
    {
      "id": 360002798954,
      "url": "https://Criscras13.github.io/API_testing/api/v2/help_center/en-us/sections/360002798954.json",
      "html_url": "https://Criscras13.github.io/API_testing/api/v2/help_center/en-us/sections/360002798954.html",
      "category_id": 200056750,
      "position": 4,
      "sorting": "manual",
      "created_at": "2018-12-17T14:25:48Z",
      "updated_at": "2025-03-11T17:46:53Z",
      "name": "Policy Management Module",
      "description": "This section contains articles that can help you use the KCM GRC Policy Management module.",
      "locale": "en-us",
      "source_locale": "en-us",
      "outdated": false,
      "parent_section_id": null,
      "theme_template": "section_page"
    },
    {
      "id": 360002057853,
      "url": "https://Criscras13.github.io/API_testing/api/v2/help_center/en-us/sections/360002057853.json",
      "html_url": "https://Criscras13.github.io/API_testing/api/v2/help_center/en-us/sections/360002057853.html",
      "category_id": 200218607,
      "position": 4,
      "sorting": "manual",
      "created_at": "2018-09-27T01:07:14Z",
      "updated_at": "2025-08-07T15:56:55Z",
      "name": "Domain Doppelg\u04d3nger",
      "description": "",
      "locale": "en-us",
      "source_locale": "en-us",
      "outdated": false,
      "parent_section_id": null,
      "theme_template": "section_page"
    },
    {
      "id": 360000156768,
      "url": "https://Criscras13.github.io/API_testing/api/v2/help_center/en-us/sections/360000156768.json",
      "html_url": "https://Criscras13.github.io/API_testing/api/v2/help_center/en-us/sections/360000156768.html",
      "category_id": 200060614,
      "position": 4,
      "sorting": "manual",
      "created_at": "2018-03-30T19:50:25Z",
      "updated_at": "2025-11-25T20:23:21Z",
      "name": "SAML Single Sign-On (SSO)",
      "description": "",
      "locale": "en-us",
      "source_locale": "en-us",
      "outdated": false,
      "parent_section_id": 360000156528,
      "theme_template": "section_page"
    },
    {
      "id": 39403182107667,
      "url": "https://Criscras13.github.io/API_testing/api/v2/help_center/en-us/sections/39403182107667.json",
      "html_url": "https://Criscras13.github.io/API_testing/api/v2/help_center/en-us/sections/39403182107667.html",
      "category_id": 39401660387859,
      "position": 5,
      "sorting": "manual",
      "created_at": "2025-03-14T18:33:46Z",
      "updated_at": "2025-08-08T10:05:27Z",
      "name": "Resources",
      "description": "",
      "locale": "en-us",
      "source_locale": "en-us",
      "outdated": false,
      "parent_section_id": null,
      "theme_template": "section_page"
    },
    {
      "id": 39401856182419,
      "url": "https://Criscras13.github.io/API_testing/api/v2/help_center/en-us/sections/39401856182419.json",
      "html_url": "https://Criscras13.github.io/API_testing/api/v2/help_center/en-us/sections/39401856182419.html",
      "category_id": 39401641458195,
      "position": 5,
      "sorting": "manual",
      "created_at": "2025-03-14T17:59:46Z",
      "updated_at": "2025-10-09T14:52:47Z",
      "name": "Resources",
      "description": "",
      "locale": "en-us",
      "source_locale": "en-us",
      "outdated": false,
      "parent_section_id": null,
      "theme_template": "section_page"
    },
    {
      "id": 35656772208915,
      "url": "https://Criscras13.github.io/API_testing/api/v2/help_center/en-us/sections/35656772208915.json",
      "html_url": "https://Criscras13.github.io/API_testing/api/v2/help_center/en-us/sections/35656772208915.html",
      "category_id": 35417481372307,
      "position": 5,
      "sorting": "manual",
      "created_at": "2024-11-21T19:01:31Z",
      "updated_at": "2025-10-23T12:13:38Z",
      "name": "FAQs",
      "description": "",
      "locale": "en-us",
      "source_locale": "en-us",
      "outdated": false,
      "parent_section_id": null,
      "theme_template": "section_page"
    },
    {
      "id": 26430388867347,
      "url": "https://Criscras13.github.io/API_testing/api/v2/help_center/en-us/sections/26430388867347.json",
      "html_url": "https://Criscras13.github.io/API_testing/api/v2/help_center/en-us/sections/26430388867347.html",
      "category_id": 200060614,
      "position": 5,
      "sorting": "manual",
      "created_at": "2024-02-16T22:10:16Z",
      "updated_at": "2025-03-11T17:38:33Z",
      "name": "Compliance Plus",
      "description": "",
      "locale": "en-us",
      "source_locale": "en-us",
      "outdated": false,
      "parent_section_id": 4406921551379,
      "theme_template": "section_page"
    },
    {
      "id": 26427604199059,
      "url": "https://Criscras13.github.io/API_testing/api/v2/help_center/en-us/sections/26427604199059.json",
      "html_url": "https://Criscras13.github.io/API_testing/api/v2/help_center/en-us/sections/26427604199059.html",
      "category_id": 200060614,
      "position": 5,
      "sorting": "manual",
      "created_at": "2024-02-16T21:07:42Z",
      "updated_at": "2025-08-13T21:19:45Z",
      "name": "Audit Log",
      "description": "",
      "locale": "en-us",
      "source_locale": "en-us",
      "outdated": false,
      "parent_section_id": 360000156668,
      "theme_template": "section_page"
    },
    {
      "id": 20418417028115,
      "url": "https://Criscras13.github.io/API_testing/api/v2/help_center/en-us/sections/20418417028115.json",
      "html_url": "https://Criscras13.github.io/API_testing/api/v2/help_center/en-us/sections/20418417028115.html",
      "category_id": 360001227394,
      "position": 5,
      "sorting": "manual",
      "created_at": "2023-09-06T19:07:23Z",
      "updated_at": "2025-07-08T08:18:04Z",
      "name": "Working with PhishRIP and PhishFlip",
      "description": "",
      "locale": "en-us",
      "source_locale": "en-us",
      "outdated": false,
      "parent_section_id": 41219229384723,
      "theme_template": "section_page"
    },
    {
      "id": 20416332835347,
      "url": "https://Criscras13.github.io/API_testing/api/v2/help_center/en-us/sections/20416332835347.json",
      "html_url": "https://Criscras13.github.io/API_testing/api/v2/help_center/en-us/sections/20416332835347.html",
      "category_id": 10948147384211,
      "position": 5,
      "sorting": "manual",
      "created_at": "2023-09-06T18:18:56Z",
      "updated_at": "2025-11-19T19:01:08Z",
      "name": "Working with Real-Time Coaching Campaigns",
      "description": "",
      "locale": "en-us",
      "source_locale": "en-us",
      "outdated": false,
      "parent_section_id": 10969864451091,
      "theme_template": "section_page"
    },
    {
      "id": 8595111689747,
      "url": "https://Criscras13.github.io/API_testing/api/v2/help_center/en-us/sections/8595111689747.json",
      "html_url": "https://Criscras13.github.io/API_testing/api/v2/help_center/en-us/sections/8595111689747.html",
      "category_id": 200060614,
      "position": 5,
      "sorting": "manual",
      "created_at": "2022-08-11T21:34:35Z",
      "updated_at": "2025-10-31T17:33:47Z",
      "name": "Using Reports",
      "description": "",
      "locale": "en-us",
      "source_locale": "en-us",
      "outdated": false,
      "parent_section_id": 360000156568,
      "theme_template": "section_page"
    },
    {
      "id": 7314522179731,
      "url": "https://Criscras13.github.io/API_testing/api/v2/help_center/en-us/sections/7314522179731.json",
      "html_url": "https://Criscras13.github.io/API_testing/api/v2/help_center/en-us/sections/7314522179731.html",
      "category_id": 200060614,
      "position": 5,
      "sorting": "manual",
      "created_at": "2022-06-27T16:08:56Z",
      "updated_at": "2025-11-21T17:21:18Z",
      "name": "Training Notifications",
      "description": "",
      "locale": "en-us",
      "source_locale": "en-us",
      "outdated": false,
      "parent_section_id": 360000156688,
      "theme_template": "section_page"
    },
    {
      "id": 4406914500243,
      "url": "https://Criscras13.github.io/API_testing/api/v2/help_center/en-us/sections/4406914500243.json",
      "html_url": "https://Criscras13.github.io/API_testing/api/v2/help_center/en-us/sections/4406914500243.html",
      "category_id": 200060614,
      "position": 5,
      "sorting": "manual",
      "created_at": "2021-09-14T15:30:28Z",
      "updated_at": "2025-09-05T16:15:55Z",
      "name": "Conducting Physical Tests",
      "description": "",
      "locale": "en-us",
      "source_locale": "en-us",
      "outdated": false,
      "parent_section_id": 4406914335763,
      "theme_template": "section_page"
    },
    {
      "id": 360002404954,
      "url": "https://Criscras13.github.io/API_testing/api/v2/help_center/en-us/sections/360002404954.json",
      "html_url": "https://Criscras13.github.io/API_testing/api/v2/help_center/en-us/sections/360002404954.html",
      "category_id": 200056750,
      "position": 5,
      "sorting": "manual",
      "created_at": "2018-10-31T19:32:36Z",
      "updated_at": "2025-03-11T17:42:35Z",
      "name": "Risk Management Module",
      "description": "This section contains articles that can help you use the KCM GRC Risk Management module.",
      "locale": "en-us",
      "source_locale": "en-us",
      "outdated": false,
      "parent_section_id": null,
      "theme_template": "section_page"
    },
    {
      "id": 360000154847,
      "url": "https://Criscras13.github.io/API_testing/api/v2/help_center/en-us/sections/360000154847.json",
      "html_url": "https://Criscras13.github.io/API_testing/api/v2/help_center/en-us/sections/360000154847.html",
      "category_id": 200218607,
      "position": 5,
      "sorting": "manual",
      "created_at": "2018-03-30T19:55:03Z",
      "updated_at": "2025-03-11T18:28:57Z",
      "name": "Domain Spoof Test (DST)",
      "description": "",
      "locale": "en-us",
      "source_locale": "en-us",
      "outdated": false,
      "parent_section_id": null,
      "theme_template": "section_page"
    },
    {
      "id": 42972312463891,
      "url": "https://Criscras13.github.io/API_testing/api/v2/help_center/en-us/sections/42972312463891.json",
      "html_url": "https://Criscras13.github.io/API_testing/api/v2/help_center/en-us/sections/42972312463891.html",
      "category_id": 39401641458195,
      "position": 6,
      "sorting": "manual",
      "created_at": "2025-07-14T11:07:36Z",
      "updated_at": "2025-08-11T17:03:48Z",
      "name": "Legacy Prevent",
      "description": "",
      "locale": "en-us",
      "source_locale": "en-us",
      "outdated": false,
      "parent_section_id": null,
      "theme_template": "section_page"
    },
    {
      "id": 39962756143635,
      "url": "https://Criscras13.github.io/API_testing/api/v2/help_center/en-us/sections/39962756143635.json",
      "html_url": "https://Criscras13.github.io/API_testing/api/v2/help_center/en-us/sections/39962756143635.html",
      "category_id": 39401660387859,
      "position": 6,
      "sorting": "manual",
      "created_at": "2025-04-02T15:23:39Z",
      "updated_at": "2025-08-08T10:01:08Z",
      "name": "COM Add-In",
      "description": "",
      "locale": "en-us",
      "source_locale": "en-us",
      "outdated": false,
      "parent_section_id": null,
      "theme_template": "section_page"
    },
    {
      "id": 20416447812499,
      "url": "https://Criscras13.github.io/API_testing/api/v2/help_center/en-us/sections/20416447812499.json",
      "html_url": "https://Criscras13.github.io/API_testing/api/v2/help_center/en-us/sections/20416447812499.html",
      "category_id": 10948147384211,
      "position": 6,
      "sorting": "manual",
      "created_at": "2023-09-06T18:21:43Z",
      "updated_at": "2025-10-29T17:12:37Z",
      "name": "Using Reports",
      "description": "",
      "locale": "en-us",
      "source_locale": "en-us",
      "outdated": false,
      "parent_section_id": 10969864451091,
      "theme_template": "section_page"
    },
    {
      "id": 7759989017491,
      "url": "https://Criscras13.github.io/API_testing/api/v2/help_center/en-us/sections/7759989017491.json",
      "html_url": "https://Criscras13.github.io/API_testing/api/v2/help_center/en-us/sections/7759989017491.html",
      "category_id": 360001227394,
      "position": 6,
      "sorting": "manual",
      "created_at": "2022-07-13T20:22:48Z",
      "updated_at": "2025-10-24T20:15:03Z",
      "name": "Setting Up Integrations",
      "description": "",
      "locale": "en-us",
      "source_locale": "en-us",
      "outdated": false,
      "parent_section_id": 41219229384723,
      "theme_template": "section_page"
    },
    {
      "id": 360003908694,
      "url": "https://Criscras13.github.io/API_testing/api/v2/help_center/en-us/sections/360003908694.json",
      "html_url": "https://Criscras13.github.io/API_testing/api/v2/help_center/en-us/sections/360003908694.html",
      "category_id": 200056750,
      "position": 6,
      "sorting": "manual",
      "created_at": "2019-04-15T20:44:34Z",
      "updated_at": "2025-05-27T14:59:20Z",
      "name": "Vendor Risk Management Module",
      "description": "This section contains articles that can help you use the KCM GRC Vendor Risk Management module.",
      "locale": "en-us",
      "source_locale": "en-us",
      "outdated": false,
      "parent_section_id": null,
      "theme_template": "section_page"
    },
    {
      "id": 360000156848,
      "url": "https://Criscras13.github.io/API_testing/api/v2/help_center/en-us/sections/360000156848.json",
      "html_url": "https://Criscras13.github.io/API_testing/api/v2/help_center/en-us/sections/360000156848.html",
      "category_id": 200218607,
      "position": 6,
      "sorting": "manual",
      "created_at": "2018-03-30T19:53:30Z",
      "updated_at": "2025-03-11T16:43:39Z",
      "name": "Email Exposure Check (EEC Pro)",
      "description": "",
      "locale": "en-us",
      "source_locale": "en-us",
      "outdated": false,
      "parent_section_id": null,
      "theme_template": "section_page"
    },
    {
      "id": 360000154667,
      "url": "https://Criscras13.github.io/API_testing/api/v2/help_center/en-us/sections/360000154667.json",
      "html_url": "https://Criscras13.github.io/API_testing/api/v2/help_center/en-us/sections/360000154667.html",
      "category_id": 200060614,
      "position": 6,
      "sorting": "manual",
      "created_at": "2018-03-30T19:44:30Z",
      "updated_at": "2025-04-16T21:43:40Z",
      "name": "Remedial Training",
      "description": "This category contains product manuals, FAQs, and videos for everything you'll want to know about conducting remedial training in KnowBe4's Security Awareness Training Platform for your organization's \"clickers\".",
      "locale": "en-us",
      "source_locale": "en-us",
      "outdated": false,
      "parent_section_id": 360000156688,
      "theme_template": "section_page"
    }
  ],
  "page": 6,
  "previous_page": "https://support.knowbe4.com/api/v2/help_center/en-us/sections_5.json",
  "next_page": "https://support.knowbe4.com/api/v2/help_center/en-us/sections_7.json",
  "per_page": 30,
  "page_count": 7,
  "count": 202,
  "sort_by": "position",
  "sort_order": "asc"
}