{
  "sections": [
    {
      "id": 26946827254035,
      "url": "https://Criscras13.github.io/KB_Transformer/api/v2/help_center/en-us/sections/26946827254035.json",
      "html_url": "https://Criscras13.github.io/KB_Transformer/api/v2/help_center/en-us/sections/26946827254035.html",
      "category_id": 360001227394,
      "position": 7,
      "sorting": "manual",
      "created_at": "2024-03-01T21:27:57Z",
      "updated_at": "2025-06-06T15:27:21Z",
      "name": "Using Reports",
      "description": "",
      "locale": "en-us",
      "source_locale": "en-us",
      "outdated": false,
      "parent_section_id": 41219229384723,
      "theme_template": "section_page",
      "source_url": "https://support.knowbe4.com/hc/en-us/sections/26946827254035-Using-Reports"
    },
    {
      "id": 360003825813,
      "url": "https://Criscras13.github.io/KB_Transformer/api/v2/help_center/en-us/sections/360003825813.json",
      "html_url": "https://Criscras13.github.io/KB_Transformer/api/v2/help_center/en-us/sections/360003825813.html",
      "category_id": 200218607,
      "position": 7,
      "sorting": "manual",
      "created_at": "2019-04-02T16:14:15Z",
      "updated_at": "2025-03-11T17:18:32Z",
      "name": "Free Phishing Reply Test (PRT)",
      "description": "",
      "locale": "en-us",
      "source_locale": "en-us",
      "outdated": false,
      "parent_section_id": null,
      "theme_template": "section_page",
      "source_url": "https://support.knowbe4.com/hc/en-us/sections/360003825813-Free-Phishing-Reply-Test-PRT"
    },
    {
      "id": 360000156668,
      "url": "https://Criscras13.github.io/KB_Transformer/api/v2/help_center/en-us/sections/360000156668.json",
      "html_url": "https://Criscras13.github.io/KB_Transformer/api/v2/help_center/en-us/sections/360000156668.html",
      "category_id": 200060614,
      "position": 7,
      "sorting": "manual",
      "created_at": "2018-03-30T19:46:57Z",
      "updated_at": "2025-11-26T20:27:12Z",
      "name": "Using Reports",
      "description": "",
      "locale": "en-us",
      "source_locale": "en-us",
      "outdated": false,
      "parent_section_id": 4406914335763,
      "theme_template": "section_page",
      "source_url": "https://support.knowbe4.com/hc/en-us/sections/360000156668-Using-Reports"
    },
    {
      "id": 4415492283667,
      "url": "https://Criscras13.github.io/KB_Transformer/api/v2/help_center/en-us/sections/4415492283667.json",
      "html_url": "https://Criscras13.github.io/KB_Transformer/api/v2/help_center/en-us/sections/4415492283667.html",
      "category_id": 200060614,
      "position": 8,
      "sorting": "manual",
      "created_at": "2022-01-17T19:08:36Z",
      "updated_at": "2025-10-24T18:53:26Z",
      "name": "Using PasswordIQ",
      "description": "",
      "locale": "en-us",
      "source_locale": "en-us",
      "outdated": false,
      "parent_section_id": 4406914335763,
      "theme_template": "section_page",
      "source_url": "https://support.knowbe4.com/hc/en-us/sections/4415492283667-Using-PasswordIQ"
    },
    {
      "id": 360000156628,
      "url": "https://Criscras13.github.io/KB_Transformer/api/v2/help_center/en-us/sections/360000156628.json",
      "html_url": "https://Criscras13.github.io/KB_Transformer/api/v2/help_center/en-us/sections/360000156628.html",
      "category_id": 200060614,
      "position": 8,
      "sorting": "manual",
      "created_at": "2018-03-30T19:46:28Z",
      "updated_at": "2025-11-21T17:13:37Z",
      "name": "Learner Support",
      "description": "",
      "locale": "en-us",
      "source_locale": "en-us",
      "outdated": false,
      "parent_section_id": null,
      "theme_template": "section_page",
      "source_url": "https://support.knowbe4.com/hc/en-us/sections/360000156628-Learner-Support"
    },
    {
      "id": 200116929,
      "url": "https://Criscras13.github.io/KB_Transformer/api/v2/help_center/en-us/sections/200116929.json",
      "html_url": "https://Criscras13.github.io/KB_Transformer/api/v2/help_center/en-us/sections/200116929.html",
      "category_id": 200218607,
      "position": 8,
      "sorting": "manual",
      "created_at": "2014-02-12T16:51:44Z",
      "updated_at": "2025-03-11T18:27:35Z",
      "name": "Free Phishing Security Test (PST)",
      "description": "",
      "locale": "en-us",
      "source_locale": "en-us",
      "outdated": false,
      "parent_section_id": null,
      "theme_template": "section_page",
      "source_url": "https://support.knowbe4.com/hc/en-us/sections/200116929-Free-Phishing-Security-Test-PST"
    },
    {
      "id": 20418472911635,
      "url": "https://Criscras13.github.io/KB_Transformer/api/v2/help_center/en-us/sections/20418472911635.json",
      "html_url": "https://Criscras13.github.io/KB_Transformer/api/v2/help_center/en-us/sections/20418472911635.html",
      "category_id": 360001227394,
      "position": 9,
      "sorting": "manual",
      "created_at": "2023-09-06T19:08:02Z",
      "updated_at": "2025-10-21T19:46:55Z",
      "name": "FAQs",
      "description": "",
      "locale": "en-us",
      "source_locale": "en-us",
      "outdated": false,
      "parent_section_id": 41219229384723,
      "theme_template": "section_page",
      "source_url": "https://support.knowbe4.com/hc/en-us/sections/20418472911635-FAQs"
    },
    {
      "id": 360004702454,
      "url": "https://Criscras13.github.io/KB_Transformer/api/v2/help_center/en-us/sections/360004702454.json",
      "html_url": "https://Criscras13.github.io/KB_Transformer/api/v2/help_center/en-us/sections/360004702454.html",
      "category_id": 200218607,
      "position": 9,
      "sorting": "manual",
      "created_at": "2019-06-28T17:05:30Z",
      "updated_at": "2025-03-11T17:20:46Z",
      "name": "Free Social Media Phishing Test (SPT)",
      "description": "",
      "locale": "en-us",
      "source_locale": "en-us",
      "outdated": false,
      "parent_section_id": null,
      "theme_template": "section_page",
      "source_url": "https://support.knowbe4.com/hc/en-us/sections/360004702454-Free-Social-Media-Phishing-Test-SPT"
    },
    {
      "id": 360000154767,
      "url": "https://Criscras13.github.io/KB_Transformer/api/v2/help_center/en-us/sections/360000154767.json",
      "html_url": "https://Criscras13.github.io/KB_Transformer/api/v2/help_center/en-us/sections/360000154767.html",
      "category_id": 200060614,
      "position": 9,
      "sorting": "manual",
      "created_at": "2018-03-30T19:49:43Z",
      "updated_at": "2025-11-11T18:38:38Z",
      "name": "Using APIs",
      "description": "",
      "locale": "en-us",
      "source_locale": "en-us",
      "outdated": false,
      "parent_section_id": 4406914335763,
      "theme_template": "section_page",
      "source_url": "https://support.knowbe4.com/hc/en-us/sections/360000154767-Using-APIs"
    },
    {
      "id": 360000156568,
      "url": "https://Criscras13.github.io/KB_Transformer/api/v2/help_center/en-us/sections/360000156568.json",
      "html_url": "https://Criscras13.github.io/KB_Transformer/api/v2/help_center/en-us/sections/360000156568.html",
      "category_id": 200060614,
      "position": 9,
      "sorting": "manual",
      "created_at": "2018-03-30T19:44:11Z",
      "updated_at": "2025-11-21T17:13:39Z",
      "name": "Partner and Multi-Account Support",
      "description": "",
      "locale": "en-us",
      "source_locale": "en-us",
      "outdated": false,
      "parent_section_id": null,
      "theme_template": "section_page",
      "source_url": "https://support.knowbe4.com/hc/en-us/sections/360000156568-Partner-and-Multi-Account-Support"
    },
    {
      "id": 16786935365139,
      "url": "https://Criscras13.github.io/KB_Transformer/api/v2/help_center/en-us/sections/16786935365139.json",
      "html_url": "https://Criscras13.github.io/KB_Transformer/api/v2/help_center/en-us/sections/16786935365139.html",
      "category_id": 200218607,
      "position": 10,
      "sorting": "manual",
      "created_at": "2023-05-19T17:30:35Z",
      "updated_at": "2025-06-03T14:34:23Z",
      "name": "Free QR Code Phishing Security Test (PST)",
      "description": "",
      "locale": "en-us",
      "source_locale": "en-us",
      "outdated": false,
      "parent_section_id": null,
      "theme_template": "section_page",
      "source_url": "https://support.knowbe4.com/hc/en-us/sections/16786935365139-Free-QR-Code-Phishing-Security-Test-PST"
    },
    {
      "id": 7759838481811,
      "url": "https://Criscras13.github.io/KB_Transformer/api/v2/help_center/en-us/sections/7759838481811.json",
      "html_url": "https://Criscras13.github.io/KB_Transformer/api/v2/help_center/en-us/sections/7759838481811.html",
      "category_id": 200060614,
      "position": 10,
      "sorting": "manual",
      "created_at": "2022-07-13T20:18:12Z",
      "updated_at": "2025-11-26T20:40:06Z",
      "name": "Setting Up Integrations",
      "description": "",
      "locale": "en-us",
      "source_locale": "en-us",
      "outdated": false,
      "parent_section_id": 4406914335763,
      "theme_template": "section_page",
      "source_url": "https://support.knowbe4.com/hc/en-us/sections/7759838481811-Setting-Up-Integrations"
    },
    {
      "id": 13828672961811,
      "url": "https://Criscras13.github.io/KB_Transformer/api/v2/help_center/en-us/sections/13828672961811.json",
      "html_url": "https://Criscras13.github.io/KB_Transformer/api/v2/help_center/en-us/sections/13828672961811.html",
      "category_id": 200218607,
      "position": 11,
      "sorting": "manual",
      "created_at": "2023-02-09T15:45:28Z",
      "updated_at": "2025-01-31T21:25:08Z",
      "name": "Free SecurityCoach Preview",
      "description": "",
      "locale": "en-us",
      "source_locale": "en-us",
      "outdated": false,
      "parent_section_id": null,
      "theme_template": "section_page",
      "source_url": "https://support.knowbe4.com/hc/en-us/sections/13828672961811-Free-SecurityCoach-Preview"
    },
    {
      "id": 360000154707,
      "url": "https://Criscras13.github.io/KB_Transformer/api/v2/help_center/en-us/sections/360000154707.json",
      "html_url": "https://Criscras13.github.io/KB_Transformer/api/v2/help_center/en-us/sections/360000154707.html",
      "category_id": 200060614,
      "position": 11,
      "sorting": "manual",
      "created_at": "2018-03-30T19:45:40Z",
      "updated_at": "2025-06-12T16:11:58Z",
      "name": "Miscellaneous",
      "description": "",
      "locale": "en-us",
      "source_locale": "en-us",
      "outdated": false,
      "parent_section_id": 4406914335763,
      "theme_template": "section_page",
      "source_url": "https://support.knowbe4.com/hc/en-us/sections/360000154707-Miscellaneous"
    },
    {
      "id": 360000156948,
      "url": "https://Criscras13.github.io/KB_Transformer/api/v2/help_center/en-us/sections/360000156948.json",
      "html_url": "https://Criscras13.github.io/KB_Transformer/api/v2/help_center/en-us/sections/360000156948.html",
      "category_id": 200218607,
      "position": 12,
      "sorting": "manual",
      "created_at": "2018-03-30T19:55:20Z",
      "updated_at": "2025-09-05T15:58:12Z",
      "name": "Free USB Security Test (UST)",
      "description": "",
      "locale": "en-us",
      "source_locale": "en-us",
      "outdated": false,
      "parent_section_id": null,
      "theme_template": "section_page",
      "source_url": "https://support.knowbe4.com/hc/en-us/sections/360000156948-Free-USB-Security-Test-UST"
    },
    {
      "id": 360000156867,
      "url": "https://Criscras13.github.io/KB_Transformer/api/v2/help_center/en-us/sections/360000156867.json",
      "html_url": "https://Criscras13.github.io/KB_Transformer/api/v2/help_center/en-us/sections/360000156867.html",
      "category_id": 200218607,
      "position": 13,
      "sorting": "manual",
      "created_at": "2018-04-02T21:58:49Z",
      "updated_at": "2024-07-26T21:11:29Z",
      "name": "Mailserver Security Assessment (MSA)",
      "description": "",
      "locale": "en-us",
      "source_locale": "en-us",
      "outdated": false,
      "parent_section_id": null,
      "theme_template": "section_page",
      "source_url": "https://support.knowbe4.com/hc/en-us/sections/360000156867-Mailserver-Security-Assessment-MSA"
    },
    {
      "id": 360005711734,
      "url": "https://Criscras13.github.io/KB_Transformer/api/v2/help_center/en-us/sections/360005711734.json",
      "html_url": "https://Criscras13.github.io/KB_Transformer/api/v2/help_center/en-us/sections/360005711734.html",
      "category_id": 200218607,
      "position": 14,
      "sorting": "creation_desc",
      "created_at": "2019-10-07T21:09:14Z",
      "updated_at": "2024-09-04T11:39:46Z",
      "name": "Multi-Factor Authentication Security Assessment (MASA)",
      "description": "",
      "locale": "en-us",
      "source_locale": "en-us",
      "outdated": false,
      "parent_section_id": null,
      "theme_template": "section_page",
      "source_url": "https://support.knowbe4.com/hc/en-us/sections/360005711734-Multi-Factor-Authentication-Security-Assessment-MASA"
    },
    {
      "id": 360002796033,
      "url": "https://Criscras13.github.io/KB_Transformer/api/v2/help_center/en-us/sections/360002796033.json",
      "html_url": "https://Criscras13.github.io/KB_Transformer/api/v2/help_center/en-us/sections/360002796033.html",
      "category_id": 200218607,
      "position": 15,
      "sorting": "manual",
      "created_at": "2018-12-12T23:17:08Z",
      "updated_at": "2025-03-11T18:32:57Z",
      "name": "Password Exposure Test",
      "description": "",
      "locale": "en-us",
      "source_locale": "en-us",
      "outdated": false,
      "parent_section_id": null,
      "theme_template": "section_page",
      "source_url": "https://support.knowbe4.com/hc/en-us/sections/360002796033-Password-Exposure-Test"
    },
    {
      "id": 360000156928,
      "url": "https://Criscras13.github.io/KB_Transformer/api/v2/help_center/en-us/sections/360000156928.json",
      "html_url": "https://Criscras13.github.io/KB_Transformer/api/v2/help_center/en-us/sections/360000156928.html",
      "category_id": 200218607,
      "position": 16,
      "sorting": "manual",
      "created_at": "2018-03-30T19:54:47Z",
      "updated_at": "2025-04-16T21:46:12Z",
      "name": "RanSim",
      "description": "In this section, you'll find resources that support our ransomware simulator (RanSim) tool. ",
      "locale": "en-us",
      "source_locale": "en-us",
      "outdated": false,
      "parent_section_id": null,
      "theme_template": "section_page",
      "source_url": "https://support.knowbe4.com/hc/en-us/sections/360000156928-RanSim"
    },
    {
      "id": 360000156968,
      "url": "https://Criscras13.github.io/KB_Transformer/api/v2/help_center/en-us/sections/360000156968.json",
      "html_url": "https://Criscras13.github.io/KB_Transformer/api/v2/help_center/en-us/sections/360000156968.html",
      "category_id": 200060614,
      "position": 18,
      "sorting": "manual",
      "created_at": "2018-03-30T19:55:43Z",
      "updated_at": "2025-10-27T20:04:03Z",
      "name": "Second Chance",
      "description": "",
      "locale": "en-us",
      "source_locale": "en-us",
      "outdated": false,
      "parent_section_id": 4406914335763,
      "theme_template": "section_page",
      "source_url": "https://support.knowbe4.com/hc/en-us/sections/360000156968-Second-Chance"
    },
    {
      "id": 360000156868,
      "url": "https://Criscras13.github.io/KB_Transformer/api/v2/help_center/en-us/sections/360000156868.json",
      "html_url": "https://Criscras13.github.io/KB_Transformer/api/v2/help_center/en-us/sections/360000156868.html",
      "category_id": 200218607,
      "position": 19,
      "sorting": "manual",
      "created_at": "2018-03-30T19:54:02Z",
      "updated_at": "2025-03-11T16:57:18Z",
      "name": "Weak Password Test (WPT)",
      "description": "",
      "locale": "en-us",
      "source_locale": "en-us",
      "outdated": false,
      "parent_section_id": null,
      "theme_template": "section_page",
      "source_url": "https://support.knowbe4.com/hc/en-us/sections/360000156868-Weak-Password-Test-WPT"
    },
    {
      "id": 360006833794,
      "url": "https://Criscras13.github.io/KB_Transformer/api/v2/help_center/en-us/sections/360006833794.json",
      "html_url": "https://Criscras13.github.io/KB_Transformer/api/v2/help_center/en-us/sections/360006833794.html",
      "category_id": 200060614,
      "position": 22,
      "sorting": "manual",
      "created_at": "2020-01-10T21:33:56Z",
      "updated_at": "2025-03-11T17:25:19Z",
      "name": "KnowBe4 Partner Portal Support",
      "description": "This section contains articles and resources to support and troubleshoot issues for our KnowBe4 Partners.",
      "locale": "en-us",
      "source_locale": "en-us",
      "outdated": false,
      "parent_section_id": 8594210251283,
      "theme_template": "section_page",
      "source_url": "https://support.knowbe4.com/hc/en-us/sections/360006833794-KnowBe4-Partner-Portal-Support"
    }
  ],
  "page": 7,
  "previous_page": "https://support.knowbe4.com/api/v2/help_center/en-us/sections_6.json",
  "next_page": null,
  "per_page": 30,
  "page_count": 7,
  "count": 202,
  "sort_by": "position",
  "sort_order": "asc"
}