{
  "sections": [
    {
      "id": 20415393797011,
      "url": "https://Criscras13.github.io/KB_Transformer/api/v2/help_center/en-us/sections/20415393797011.json",
      "html_url": "https://Criscras13.github.io/KB_Transformer/api/v2/help_center/en-us/sections/20415393797011.html",
      "category_id": 200060614,
      "position": 0,
      "sorting": "manual",
      "created_at": "2023-09-06T17:59:24Z",
      "updated_at": "2025-04-07T18:31:50Z",
      "name": "Adjusting Your Settings",
      "description": "",
      "locale": "en-us",
      "source_locale": "en-us",
      "outdated": false,
      "parent_section_id": 360000156628,
      "theme_template": "section_page",
      "source_url": "https://support.knowbe4.com/hc/en-us/sections/20415393797011-Adjusting-Your-Settings"
    },
    {
      "id": 20158694656531,
      "url": "https://Criscras13.github.io/KB_Transformer/api/v2/help_center/en-us/sections/20158694656531.json",
      "html_url": "https://Criscras13.github.io/KB_Transformer/api/v2/help_center/en-us/sections/20158694656531.html",
      "category_id": 200060614,
      "position": 0,
      "sorting": "manual",
      "created_at": "2023-08-31T20:26:19Z",
      "updated_at": "2025-06-09T14:55:45Z",
      "name": "Baseline Phishing Tests",
      "description": "",
      "locale": "en-us",
      "source_locale": "en-us",
      "outdated": false,
      "parent_section_id": 360000156648,
      "theme_template": "section_page",
      "source_url": "https://support.knowbe4.com/hc/en-us/sections/20158694656531-Baseline-Phishing-Tests"
    },
    {
      "id": 20158468615315,
      "url": "https://Criscras13.github.io/KB_Transformer/api/v2/help_center/en-us/sections/20158468615315.json",
      "html_url": "https://Criscras13.github.io/KB_Transformer/api/v2/help_center/en-us/sections/20158468615315.html",
      "category_id": 200060614,
      "position": 0,
      "sorting": "manual",
      "created_at": "2023-08-31T20:22:11Z",
      "updated_at": "2025-09-25T20:18:30Z",
      "name": "Importing Users",
      "description": "",
      "locale": "en-us",
      "source_locale": "en-us",
      "outdated": false,
      "parent_section_id": 20158407010963,
      "theme_template": "section_page",
      "source_url": "https://support.knowbe4.com/hc/en-us/sections/20158468615315-Importing-Users"
    },
    {
      "id": 20158407010963,
      "url": "https://Criscras13.github.io/KB_Transformer/api/v2/help_center/en-us/sections/20158407010963.json",
      "html_url": "https://Criscras13.github.io/KB_Transformer/api/v2/help_center/en-us/sections/20158407010963.html",
      "category_id": 200060614,
      "position": 0,
      "sorting": "manual",
      "created_at": "2023-08-31T20:20:53Z",
      "updated_at": "2025-11-26T20:14:18Z",
      "name": "Adding and Managing Users",
      "description": "",
      "locale": "en-us",
      "source_locale": "en-us",
      "outdated": false,
      "parent_section_id": 360000154687,
      "theme_template": "section_page",
      "source_url": "https://support.knowbe4.com/hc/en-us/sections/20158407010963-Adding-and-Managing-Users"
    },
    {
      "id": 20037043491347,
      "url": "https://Criscras13.github.io/KB_Transformer/api/v2/help_center/en-us/sections/20037043491347.json",
      "html_url": "https://Criscras13.github.io/KB_Transformer/api/v2/help_center/en-us/sections/20037043491347.html",
      "category_id": 200060614,
      "position": 0,
      "sorting": "manual",
      "created_at": "2023-08-29T17:56:20Z",
      "updated_at": "2025-11-26T20:07:27Z",
      "name": "Whitelisting Mail Servers",
      "description": "",
      "locale": "en-us",
      "source_locale": "en-us",
      "outdated": false,
      "parent_section_id": 360000156608,
      "theme_template": "section_page",
      "source_url": "https://support.knowbe4.com/hc/en-us/sections/20037043491347-Whitelisting-Mail-Servers"
    },
    {
      "id": 19302214521747,
      "url": "https://Criscras13.github.io/KB_Transformer/api/v2/help_center/en-us/sections/19302214521747.json",
      "html_url": "https://Criscras13.github.io/KB_Transformer/api/v2/help_center/en-us/sections/19302214521747.html",
      "category_id": 200060614,
      "position": 0,
      "sorting": "manual",
      "created_at": "2023-08-07T14:42:03Z",
      "updated_at": "2025-08-15T20:52:13Z",
      "name": "Callback Phishing",
      "description": "This section contains articles and videos pertaining to preparing, creating, and monitoring callback phishing campaigns in your KnowBe4 Security Awareness Training Platform.\n\nIf you can't find what you need, submit a support ticket here and we'll be happy to assist you.",
      "locale": "en-us",
      "source_locale": "en-us",
      "outdated": false,
      "parent_section_id": 360000156648,
      "theme_template": "section_page",
      "source_url": "https://support.knowbe4.com/hc/en-us/sections/19302214521747-Callback-Phishing"
    },
    {
      "id": 10969864451091,
      "url": "https://Criscras13.github.io/KB_Transformer/api/v2/help_center/en-us/sections/10969864451091.json",
      "html_url": "https://Criscras13.github.io/KB_Transformer/api/v2/help_center/en-us/sections/10969864451091.html",
      "category_id": 10948147384211,
      "position": 0,
      "sorting": "manual",
      "created_at": "2022-11-04T13:54:40Z",
      "updated_at": "2025-11-26T21:14:02Z",
      "name": "Admin Support",
      "description": "This section includes articles and guides to help admins who use SecurityCoach.",
      "locale": "en-us",
      "source_locale": "en-us",
      "outdated": false,
      "parent_section_id": null,
      "theme_template": "section_page",
      "source_url": "https://support.knowbe4.com/hc/en-us/sections/10969864451091-Admin-Support"
    },
    {
      "id": 10938366298899,
      "url": "https://Criscras13.github.io/KB_Transformer/api/v2/help_center/en-us/sections/10938366298899.json",
      "html_url": "https://Criscras13.github.io/KB_Transformer/api/v2/help_center/en-us/sections/10938366298899.html",
      "category_id": 200056750,
      "position": 0,
      "sorting": "manual",
      "created_at": "2022-11-03T13:52:04Z",
      "updated_at": "2025-03-11T17:52:39Z",
      "name": "Jira Integration",
      "description": "This section contains articles that can help you integrate your Atlassian Jira account with KCM GRC.",
      "locale": "en-us",
      "source_locale": "en-us",
      "outdated": false,
      "parent_section_id": 9802492800275,
      "theme_template": "section_page",
      "source_url": "https://support.knowbe4.com/hc/en-us/sections/10938366298899-Jira-Integration"
    },
    {
      "id": 10938359979411,
      "url": "https://Criscras13.github.io/KB_Transformer/api/v2/help_center/en-us/sections/10938359979411.json",
      "html_url": "https://Criscras13.github.io/KB_Transformer/api/v2/help_center/en-us/sections/10938359979411.html",
      "category_id": 200056750,
      "position": 0,
      "sorting": "manual",
      "created_at": "2022-11-03T13:50:50Z",
      "updated_at": "2025-03-11T17:59:07Z",
      "name": "KSAT Integration",
      "description": "This section contains articles that can help you integrate your KSAT console with KCM GRC.",
      "locale": "en-us",
      "source_locale": "en-us",
      "outdated": false,
      "parent_section_id": 9802492800275,
      "theme_template": "section_page",
      "source_url": "https://support.knowbe4.com/hc/en-us/sections/10938359979411-KSAT-Integration"
    },
    {
      "id": 8750751995667,
      "url": "https://Criscras13.github.io/KB_Transformer/api/v2/help_center/en-us/sections/8750751995667.json",
      "html_url": "https://Criscras13.github.io/KB_Transformer/api/v2/help_center/en-us/sections/8750751995667.html",
      "category_id": 200056750,
      "position": 0,
      "sorting": "manual",
      "created_at": "2022-08-17T17:18:53Z",
      "updated_at": "2025-03-11T17:45:02Z",
      "name": "Getting Started",
      "description": "This section can help you get started with your KCM GRC Policy Management module.",
      "locale": "en-us",
      "source_locale": "en-us",
      "outdated": false,
      "parent_section_id": 360002798954,
      "theme_template": "section_page",
      "source_url": "https://support.knowbe4.com/hc/en-us/sections/8750751995667-Getting-Started"
    },
    {
      "id": 8750291905939,
      "url": "https://Criscras13.github.io/KB_Transformer/api/v2/help_center/en-us/sections/8750291905939.json",
      "html_url": "https://Criscras13.github.io/KB_Transformer/api/v2/help_center/en-us/sections/8750291905939.html",
      "category_id": 200056750,
      "position": 0,
      "sorting": "manual",
      "created_at": "2022-08-17T17:06:13Z",
      "updated_at": "2025-05-27T14:59:09Z",
      "name": "Account Settings",
      "description": "This section contains articles that can help you set up your Account Settings in KCM GRC.",
      "locale": "en-us",
      "source_locale": "en-us",
      "outdated": false,
      "parent_section_id": 360000156808,
      "theme_template": "section_page",
      "source_url": "https://support.knowbe4.com/hc/en-us/sections/8750291905939-Account-Settings"
    },
    {
      "id": 8749663244179,
      "url": "https://Criscras13.github.io/KB_Transformer/api/v2/help_center/en-us/sections/8749663244179.json",
      "html_url": "https://Criscras13.github.io/KB_Transformer/api/v2/help_center/en-us/sections/8749663244179.html",
      "category_id": 200056750,
      "position": 0,
      "sorting": "manual",
      "created_at": "2022-08-17T16:48:53Z",
      "updated_at": "2024-09-18T17:33:32Z",
      "name": "Getting Started",
      "description": "This section can help you get started with your KCM GRC Risk Management module.",
      "locale": "en-us",
      "source_locale": "en-us",
      "outdated": false,
      "parent_section_id": 360002404954,
      "theme_template": "section_page",
      "source_url": "https://support.knowbe4.com/hc/en-us/sections/8749663244179-Getting-Started"
    },
    {
      "id": 8746158474899,
      "url": "https://Criscras13.github.io/KB_Transformer/api/v2/help_center/en-us/sections/8746158474899.json",
      "html_url": "https://Criscras13.github.io/KB_Transformer/api/v2/help_center/en-us/sections/8746158474899.html",
      "category_id": 200056750,
      "position": 0,
      "sorting": "manual",
      "created_at": "2022-08-17T15:11:03Z",
      "updated_at": "2025-03-11T17:19:54Z",
      "name": "Getting Started",
      "description": "This section can help you get started with your KCM GRC Vendor Risk Management module.",
      "locale": "en-us",
      "source_locale": "en-us",
      "outdated": false,
      "parent_section_id": 360003908694,
      "theme_template": "section_page",
      "source_url": "https://support.knowbe4.com/hc/en-us/sections/8746158474899-Getting-Started"
    },
    {
      "id": 8745266192531,
      "url": "https://Criscras13.github.io/KB_Transformer/api/v2/help_center/en-us/sections/8745266192531.json",
      "html_url": "https://Criscras13.github.io/KB_Transformer/api/v2/help_center/en-us/sections/8745266192531.html",
      "category_id": 200056750,
      "position": 0,
      "sorting": "manual",
      "created_at": "2022-08-17T14:46:10Z",
      "updated_at": "2025-03-11T17:28:03Z",
      "name": "Getting Started",
      "description": "This section can help you get started with your KCM GRC Compliance Management module.",
      "locale": "en-us",
      "source_locale": "en-us",
      "outdated": false,
      "parent_section_id": 360002828493,
      "theme_template": "section_page",
      "source_url": "https://support.knowbe4.com/hc/en-us/sections/8745266192531-Getting-Started"
    },
    {
      "id": 8594210251283,
      "url": "https://Criscras13.github.io/KB_Transformer/api/v2/help_center/en-us/sections/8594210251283.json",
      "html_url": "https://Criscras13.github.io/KB_Transformer/api/v2/help_center/en-us/sections/8594210251283.html",
      "category_id": 200060614,
      "position": 0,
      "sorting": "manual",
      "created_at": "2022-08-11T21:06:57Z",
      "updated_at": "2025-11-21T17:13:39Z",
      "name": "Getting Started",
      "description": "This section contains product manuals, FAQs, and videos related to getting started in KSMAT. These materials are for Resellers, Managed Service Providers (MSPs), and Multi-Account Organizations using KnowBe4's Security Awareness Training Platform software for their clients.",
      "locale": "en-us",
      "source_locale": "en-us",
      "outdated": false,
      "parent_section_id": 360000156568,
      "theme_template": "section_page",
      "source_url": "https://support.knowbe4.com/hc/en-us/sections/8594210251283-Getting-Started"
    },
    {
      "id": 4406922364307,
      "url": "https://Criscras13.github.io/KB_Transformer/api/v2/help_center/en-us/sections/4406922364307.json",
      "html_url": "https://Criscras13.github.io/KB_Transformer/api/v2/help_center/en-us/sections/4406922364307.html",
      "category_id": 200060614,
      "position": 0,
      "sorting": "manual",
      "created_at": "2021-09-14T17:37:43Z",
      "updated_at": "2025-11-26T20:25:15Z",
      "name": "Account Customization",
      "description": "",
      "locale": "en-us",
      "source_locale": "en-us",
      "outdated": false,
      "parent_section_id": 360000156528,
      "theme_template": "section_page",
      "source_url": "https://support.knowbe4.com/hc/en-us/sections/4406922364307-Account-Customization"
    },
    {
      "id": 4406704454035,
      "url": "https://Criscras13.github.io/KB_Transformer/api/v2/help_center/en-us/sections/4406704454035.json",
      "html_url": "https://Criscras13.github.io/KB_Transformer/api/v2/help_center/en-us/sections/4406704454035.html",
      "category_id": 200056750,
      "position": 0,
      "sorting": "manual",
      "created_at": "2021-09-10T15:34:43Z",
      "updated_at": "2025-03-11T17:42:32Z",
      "name": "Articles",
      "description": "This section contains articles that can help you get started with KCM GRC. ",
      "locale": "en-us",
      "source_locale": "en-us",
      "outdated": false,
      "parent_section_id": 360000156788,
      "theme_template": "section_page",
      "source_url": "https://support.knowbe4.com/hc/en-us/sections/4406704454035-Articles"
    },
    {
      "id": 4406698947475,
      "url": "https://Criscras13.github.io/KB_Transformer/api/v2/help_center/en-us/sections/4406698947475.json",
      "html_url": "https://Criscras13.github.io/KB_Transformer/api/v2/help_center/en-us/sections/4406698947475.html",
      "category_id": 200056750,
      "position": 0,
      "sorting": "manual",
      "created_at": "2021-09-10T15:34:23Z",
      "updated_at": "2025-04-16T21:53:13Z",
      "name": "Videos",
      "description": "This section contains instructional videos that can help you get started with KCM GRC.",
      "locale": "en-us",
      "source_locale": "en-us",
      "outdated": false,
      "parent_section_id": 360000156788,
      "theme_template": "section_page",
      "source_url": "https://support.knowbe4.com/hc/en-us/sections/4406698947475-Videos"
    },
    {
      "id": 4406704414099,
      "url": "https://Criscras13.github.io/KB_Transformer/api/v2/help_center/en-us/sections/4406704414099.json",
      "html_url": "https://Criscras13.github.io/KB_Transformer/api/v2/help_center/en-us/sections/4406704414099.html",
      "category_id": 200056750,
      "position": 0,
      "sorting": "manual",
      "created_at": "2021-09-10T15:32:53Z",
      "updated_at": "2025-03-11T17:43:25Z",
      "name": "SAML Single Sign-On (SSO)",
      "description": "This section contains articles that can help you set up SSO/SAML for your KCM GRC platform. ",
      "locale": "en-us",
      "source_locale": "en-us",
      "outdated": false,
      "parent_section_id": 8750291905939,
      "theme_template": "section_page",
      "source_url": "https://support.knowbe4.com/hc/en-us/sections/4406704414099-SAML-Single-Sign-On-SSO"
    },
    {
      "id": 4406704332563,
      "url": "https://Criscras13.github.io/KB_Transformer/api/v2/help_center/en-us/sections/4406704332563.json",
      "html_url": "https://Criscras13.github.io/KB_Transformer/api/v2/help_center/en-us/sections/4406704332563.html",
      "category_id": 4406652137875,
      "position": 0,
      "sorting": "manual",
      "created_at": "2021-09-10T15:26:08Z",
      "updated_at": "2025-11-03T21:59:31Z",
      "name": "Hybrid PAB",
      "description": "",
      "locale": "en-us",
      "source_locale": "en-us",
      "outdated": false,
      "parent_section_id": 20420703398419,
      "theme_template": "section_page",
      "source_url": "https://support.knowbe4.com/hc/en-us/sections/4406704332563-Hybrid-PAB"
    },
    {
      "id": 4406704235667,
      "url": "https://Criscras13.github.io/KB_Transformer/api/v2/help_center/en-us/sections/4406704235667.json",
      "html_url": "https://Criscras13.github.io/KB_Transformer/api/v2/help_center/en-us/sections/4406704235667.html",
      "category_id": 4406652137875,
      "position": 0,
      "sorting": "manual",
      "created_at": "2021-09-10T15:19:29Z",
      "updated_at": "2025-11-21T17:13:41Z",
      "name": "Getting Started",
      "description": "",
      "locale": "en-us",
      "source_locale": "en-us",
      "outdated": false,
      "parent_section_id": 20421506472979,
      "theme_template": "section_page",
      "source_url": "https://support.knowbe4.com/hc/en-us/sections/4406704235667-Getting-Started"
    },
    {
      "id": 4403058844051,
      "url": "https://Criscras13.github.io/KB_Transformer/api/v2/help_center/en-us/sections/4403058844051.json",
      "html_url": "https://Criscras13.github.io/KB_Transformer/api/v2/help_center/en-us/sections/4403058844051.html",
      "category_id": 200056750,
      "position": 0,
      "sorting": "manual",
      "created_at": "2021-07-01T20:43:31Z",
      "updated_at": "2025-04-24T16:39:04Z",
      "name": "Announcements",
      "description": "Use this section to stay up to date with new features and enhancements to KnowBe4's KCM GRC platform.\n",
      "locale": "en-us",
      "source_locale": "en-us",
      "outdated": false,
      "parent_section_id": null,
      "theme_template": "section_page",
      "source_url": "https://support.knowbe4.com/hc/en-us/sections/4403058844051-Announcements"
    },
    {
      "id": 360002819533,
      "url": "https://Criscras13.github.io/KB_Transformer/api/v2/help_center/en-us/sections/360002819533.json",
      "html_url": "https://Criscras13.github.io/KB_Transformer/api/v2/help_center/en-us/sections/360002819533.html",
      "category_id": 360001227394,
      "position": 0,
      "sorting": "manual",
      "created_at": "2018-12-14T22:30:30Z",
      "updated_at": "2025-11-26T20:32:31Z",
      "name": "Getting Started",
      "description": "This section contains everything you need to know to get started with KnowBe4's PhishER platform.",
      "locale": "en-us",
      "source_locale": "en-us",
      "outdated": false,
      "parent_section_id": 41219229384723,
      "theme_template": "section_page",
      "source_url": "https://support.knowbe4.com/hc/en-us/sections/360002819533-Getting-Started"
    },
    {
      "id": 360000154747,
      "url": "https://Criscras13.github.io/KB_Transformer/api/v2/help_center/en-us/sections/360000154747.json",
      "html_url": "https://Criscras13.github.io/KB_Transformer/api/v2/help_center/en-us/sections/360000154747.html",
      "category_id": 8816505020819,
      "position": 0,
      "sorting": "manual",
      "created_at": "2018-03-30T19:49:30Z",
      "updated_at": "2025-11-25T22:00:34Z",
      "name": "Announcements",
      "description": "Use this section to stay up to date with new features and enhancements to the KnowBe4 Security Awareness Training platform.",
      "locale": "en-us",
      "source_locale": "en-us",
      "outdated": false,
      "parent_section_id": null,
      "theme_template": "section_page",
      "source_url": "https://support.knowbe4.com/hc/en-us/sections/360000154747-Announcements"
    },
    {
      "id": 360000156688,
      "url": "https://Criscras13.github.io/KB_Transformer/api/v2/help_center/en-us/sections/360000156688.json",
      "html_url": "https://Criscras13.github.io/KB_Transformer/api/v2/help_center/en-us/sections/360000156688.html",
      "category_id": 200060614,
      "position": 0,
      "sorting": "manual",
      "created_at": "2018-03-30T19:47:12Z",
      "updated_at": "2025-11-21T17:21:18Z",
      "name": "Training Campaigns",
      "description": "This category contains information and tips about conducting Training Campaigns in KnowBe4's Security Awareness Training Platform software.",
      "locale": "en-us",
      "source_locale": "en-us",
      "outdated": false,
      "parent_section_id": 4406909552915,
      "theme_template": "section_page",
      "source_url": "https://support.knowbe4.com/hc/en-us/sections/360000156688-Training-Campaigns"
    },
    {
      "id": 360000156528,
      "url": "https://Criscras13.github.io/KB_Transformer/api/v2/help_center/en-us/sections/360000156528.json",
      "html_url": "https://Criscras13.github.io/KB_Transformer/api/v2/help_center/en-us/sections/360000156528.html",
      "category_id": 200060614,
      "position": 0,
      "sorting": "manual",
      "created_at": "2018-03-30T19:41:29Z",
      "updated_at": "2025-11-26T20:25:15Z",
      "name": "Getting Started",
      "description": "",
      "locale": "en-us",
      "source_locale": "en-us",
      "outdated": false,
      "parent_section_id": 4406914335763,
      "theme_template": "section_page",
      "source_url": "https://support.knowbe4.com/hc/en-us/sections/360000156528-Getting-Started"
    },
    {
      "id": 39403151377683,
      "url": "https://Criscras13.github.io/KB_Transformer/api/v2/help_center/en-us/sections/39403151377683.json",
      "html_url": "https://Criscras13.github.io/KB_Transformer/api/v2/help_center/en-us/sections/39403151377683.html",
      "category_id": 39401660387859,
      "position": 1,
      "sorting": "manual",
      "created_at": "2025-03-14T18:34:00Z",
      "updated_at": "2025-08-21T08:56:42Z",
      "name": "Web Add-In",
      "description": "",
      "locale": "en-us",
      "source_locale": "en-us",
      "outdated": false,
      "parent_section_id": null,
      "theme_template": "section_page",
      "source_url": "https://support.knowbe4.com/hc/en-us/sections/39403151377683-Web-Add-In"
    },
    {
      "id": 39401807856531,
      "url": "https://Criscras13.github.io/KB_Transformer/api/v2/help_center/en-us/sections/39401807856531.json",
      "html_url": "https://Criscras13.github.io/KB_Transformer/api/v2/help_center/en-us/sections/39401807856531.html",
      "category_id": 39401641458195,
      "position": 1,
      "sorting": "manual",
      "created_at": "2025-03-14T17:59:39Z",
      "updated_at": "2025-08-08T09:03:20Z",
      "name": "Getting Started",
      "description": "",
      "locale": "en-us",
      "source_locale": "en-us",
      "outdated": false,
      "parent_section_id": null,
      "theme_template": "section_page",
      "source_url": "https://support.knowbe4.com/hc/en-us/sections/39401807856531-Getting-Started"
    },
    {
      "id": 37744209356179,
      "url": "https://Criscras13.github.io/KB_Transformer/api/v2/help_center/en-us/sections/37744209356179.json",
      "html_url": "https://Criscras13.github.io/KB_Transformer/api/v2/help_center/en-us/sections/37744209356179.html",
      "category_id": 8816505020819,
      "position": 1,
      "sorting": "manual",
      "created_at": "2025-01-23T19:32:15Z",
      "updated_at": "2025-11-26T20:34:06Z",
      "name": "KnowBe4 Academy",
      "description": "",
      "locale": "en-us",
      "source_locale": "en-us",
      "outdated": false,
      "parent_section_id": null,
      "theme_template": "section_page",
      "source_url": "https://support.knowbe4.com/hc/en-us/sections/37744209356179-KnowBe4-Academy"
    },
    {
      "id": 35656836602259,
      "url": "https://Criscras13.github.io/KB_Transformer/api/v2/help_center/en-us/sections/35656836602259.json",
      "html_url": "https://Criscras13.github.io/KB_Transformer/api/v2/help_center/en-us/sections/35656836602259.html",
      "category_id": 35417481372307,
      "position": 1,
      "sorting": "manual",
      "created_at": "2024-11-21T19:02:32Z",
      "updated_at": "2025-11-24T14:52:17Z",
      "name": "Integrations",
      "description": "",
      "locale": "en-us",
      "source_locale": "en-us",
      "outdated": false,
      "parent_section_id": null,
      "theme_template": "section_page",
      "source_url": "https://support.knowbe4.com/hc/en-us/sections/35656836602259-Integrations"
    }
  ],
  "page": 2,
  "previous_page": "https://support.knowbe4.com/api/v2/help_center/en-us/sections_1.json",
  "next_page": "https://support.knowbe4.com/api/v2/help_center/en-us/sections_3.json",
  "per_page": 30,
  "page_count": 7,
  "count": 202,
  "sort_by": "position",
  "sort_order": "asc"
}